%!PS-Adobe-2.0 EPSF-2.0
%%Title: Rho_Variation.eps
%%Creator: gnuplot 5.0 patchlevel 1
%%CreationDate: Fri Dec 11 14:58:18 2015
%%DocumentFonts: (atend)
%%BoundingBox: 50 50 410 302
%%EndComments
%%BeginProlog
/gnudict 256 dict def
gnudict begin
%
% The following true/false flags may be edited by hand if desired.
% The unit line width and grayscale image gamma correction may also be changed.
%
/Color true def
/Blacktext false def
/Solid false def
/Dashlength 1 def
/Landscape false def
/Level1 false def
/Level3 false def
/Rounded false def
/ClipToBoundingBox false def
/SuppressPDFMark false def
/TransparentPatterns false def
/gnulinewidth 5.000 def
/userlinewidth gnulinewidth def
/Gamma 1.0 def
/BackgroundColor {-1.000 -1.000 -1.000} def
%
/vshift -33 def
/dl1 {
  10.0 Dashlength userlinewidth gnulinewidth div mul mul mul
  Rounded { currentlinewidth 0.75 mul sub dup 0 le { pop 0.01 } if } if
} def
/dl2 {
  10.0 Dashlength userlinewidth gnulinewidth div mul mul mul
  Rounded { currentlinewidth 0.75 mul add } if
} def
/hpt_ 31.5 def
/vpt_ 31.5 def
/hpt hpt_ def
/vpt vpt_ def
/doclip {
  ClipToBoundingBox {
    newpath 50 50 moveto 410 50 lineto 410 302 lineto 50 302 lineto closepath
    clip
  } if
} def
%
% Gnuplot Prolog Version 5.0 (Dec 2014)
%
%/SuppressPDFMark true def
%
/M {moveto} bind def
/L {lineto} bind def
/R {rmoveto} bind def
/V {rlineto} bind def
/N {newpath moveto} bind def
/Z {closepath} bind def
/C {setrgbcolor} bind def
/f {rlineto fill} bind def
/g {setgray} bind def
/Gshow {show} def   % May be redefined later in the file to support UTF-8
/vpt2 vpt 2 mul def
/hpt2 hpt 2 mul def
/Lshow {currentpoint stroke M 0 vshift R 
	Blacktext {gsave 0 setgray textshow grestore} {textshow} ifelse} def
/Rshow {currentpoint stroke M dup stringwidth pop neg vshift R
	Blacktext {gsave 0 setgray textshow grestore} {textshow} ifelse} def
/Cshow {currentpoint stroke M dup stringwidth pop -2 div vshift R 
	Blacktext {gsave 0 setgray textshow grestore} {textshow} ifelse} def
/UP {dup vpt_ mul /vpt exch def hpt_ mul /hpt exch def
  /hpt2 hpt 2 mul def /vpt2 vpt 2 mul def} def
/DL {Color {setrgbcolor Solid {pop []} if 0 setdash}
 {pop pop pop 0 setgray Solid {pop []} if 0 setdash} ifelse} def
/BL {stroke userlinewidth 2 mul setlinewidth
	Rounded {1 setlinejoin 1 setlinecap} if} def
/AL {stroke userlinewidth 2 div setlinewidth
	Rounded {1 setlinejoin 1 setlinecap} if} def
/UL {dup gnulinewidth mul /userlinewidth exch def
	dup 1 lt {pop 1} if 10 mul /udl exch def} def
/PL {stroke userlinewidth setlinewidth
	Rounded {1 setlinejoin 1 setlinecap} if} def
3.8 setmiterlimit
% Classic Line colors (version 5.0)
/LCw {1 1 1} def
/LCb {0 0 0} def
/LCa {0 0 0} def
/LC0 {1 0 0} def
/LC1 {0 1 0} def
/LC2 {0 0 1} def
/LC3 {1 0 1} def
/LC4 {0 1 1} def
/LC5 {1 1 0} def
/LC6 {0 0 0} def
/LC7 {1 0.3 0} def
/LC8 {0.5 0.5 0.5} def
% Default dash patterns (version 5.0)
/LTw {PL [] 1 setgray} def
/LTb {BL [] LCb DL} def
/LTa {AL [1 udl mul 2 udl mul] 0 setdash LCa setrgbcolor} def
/LT0 {PL [] LC0 DL} def
/LT1 {PL [2 dl1 3 dl2] LC1 DL} def
/LT2 {PL [1 dl1 1.5 dl2] LC2 DL} def
/LT3 {PL [6 dl1 2 dl2 1 dl1 2 dl2] LC3 DL} def
/LT4 {PL [1 dl1 2 dl2 6 dl1 2 dl2 1 dl1 2 dl2] LC4 DL} def
/LT5 {PL [4 dl1 2 dl2] LC5 DL} def
/LT6 {PL [1.5 dl1 1.5 dl2 1.5 dl1 1.5 dl2 1.5 dl1 6 dl2] LC6 DL} def
/LT7 {PL [3 dl1 3 dl2 1 dl1 3 dl2] LC7 DL} def
/LT8 {PL [2 dl1 2 dl2 2 dl1 6 dl2] LC8 DL} def
/SL {[] 0 setdash} def
/Pnt {stroke [] 0 setdash gsave 1 setlinecap M 0 0 V stroke grestore} def
/Dia {stroke [] 0 setdash 2 copy vpt add M
  hpt neg vpt neg V hpt vpt neg V
  hpt vpt V hpt neg vpt V closepath stroke
  Pnt} def
/Pls {stroke [] 0 setdash vpt sub M 0 vpt2 V
  currentpoint stroke M
  hpt neg vpt neg R hpt2 0 V stroke
 } def
/Box {stroke [] 0 setdash 2 copy exch hpt sub exch vpt add M
  0 vpt2 neg V hpt2 0 V 0 vpt2 V
  hpt2 neg 0 V closepath stroke
  Pnt} def
/Crs {stroke [] 0 setdash exch hpt sub exch vpt add M
  hpt2 vpt2 neg V currentpoint stroke M
  hpt2 neg 0 R hpt2 vpt2 V stroke} def
/TriU {stroke [] 0 setdash 2 copy vpt 1.12 mul add M
  hpt neg vpt -1.62 mul V
  hpt 2 mul 0 V
  hpt neg vpt 1.62 mul V closepath stroke
  Pnt} def
/Star {2 copy Pls Crs} def
/BoxF {stroke [] 0 setdash exch hpt sub exch vpt add M
  0 vpt2 neg V hpt2 0 V 0 vpt2 V
  hpt2 neg 0 V closepath fill} def
/TriUF {stroke [] 0 setdash vpt 1.12 mul add M
  hpt neg vpt -1.62 mul V
  hpt 2 mul 0 V
  hpt neg vpt 1.62 mul V closepath fill} def
/TriD {stroke [] 0 setdash 2 copy vpt 1.12 mul sub M
  hpt neg vpt 1.62 mul V
  hpt 2 mul 0 V
  hpt neg vpt -1.62 mul V closepath stroke
  Pnt} def
/TriDF {stroke [] 0 setdash vpt 1.12 mul sub M
  hpt neg vpt 1.62 mul V
  hpt 2 mul 0 V
  hpt neg vpt -1.62 mul V closepath fill} def
/DiaF {stroke [] 0 setdash vpt add M
  hpt neg vpt neg V hpt vpt neg V
  hpt vpt V hpt neg vpt V closepath fill} def
/Pent {stroke [] 0 setdash 2 copy gsave
  translate 0 hpt M 4 {72 rotate 0 hpt L} repeat
  closepath stroke grestore Pnt} def
/PentF {stroke [] 0 setdash gsave
  translate 0 hpt M 4 {72 rotate 0 hpt L} repeat
  closepath fill grestore} def
/Circle {stroke [] 0 setdash 2 copy
  hpt 0 360 arc stroke Pnt} def
/CircleF {stroke [] 0 setdash hpt 0 360 arc fill} def
/C0 {BL [] 0 setdash 2 copy moveto vpt 90 450 arc} bind def
/C1 {BL [] 0 setdash 2 copy moveto
	2 copy vpt 0 90 arc closepath fill
	vpt 0 360 arc closepath} bind def
/C2 {BL [] 0 setdash 2 copy moveto
	2 copy vpt 90 180 arc closepath fill
	vpt 0 360 arc closepath} bind def
/C3 {BL [] 0 setdash 2 copy moveto
	2 copy vpt 0 180 arc closepath fill
	vpt 0 360 arc closepath} bind def
/C4 {BL [] 0 setdash 2 copy moveto
	2 copy vpt 180 270 arc closepath fill
	vpt 0 360 arc closepath} bind def
/C5 {BL [] 0 setdash 2 copy moveto
	2 copy vpt 0 90 arc
	2 copy moveto
	2 copy vpt 180 270 arc closepath fill
	vpt 0 360 arc} bind def
/C6 {BL [] 0 setdash 2 copy moveto
	2 copy vpt 90 270 arc closepath fill
	vpt 0 360 arc closepath} bind def
/C7 {BL [] 0 setdash 2 copy moveto
	2 copy vpt 0 270 arc closepath fill
	vpt 0 360 arc closepath} bind def
/C8 {BL [] 0 setdash 2 copy moveto
	2 copy vpt 270 360 arc closepath fill
	vpt 0 360 arc closepath} bind def
/C9 {BL [] 0 setdash 2 copy moveto
	2 copy vpt 270 450 arc closepath fill
	vpt 0 360 arc closepath} bind def
/C10 {BL [] 0 setdash 2 copy 2 copy moveto vpt 270 360 arc closepath fill
	2 copy moveto
	2 copy vpt 90 180 arc closepath fill
	vpt 0 360 arc closepath} bind def
/C11 {BL [] 0 setdash 2 copy moveto
	2 copy vpt 0 180 arc closepath fill
	2 copy moveto
	2 copy vpt 270 360 arc closepath fill
	vpt 0 360 arc closepath} bind def
/C12 {BL [] 0 setdash 2 copy moveto
	2 copy vpt 180 360 arc closepath fill
	vpt 0 360 arc closepath} bind def
/C13 {BL [] 0 setdash 2 copy moveto
	2 copy vpt 0 90 arc closepath fill
	2 copy moveto
	2 copy vpt 180 360 arc closepath fill
	vpt 0 360 arc closepath} bind def
/C14 {BL [] 0 setdash 2 copy moveto
	2 copy vpt 90 360 arc closepath fill
	vpt 0 360 arc} bind def
/C15 {BL [] 0 setdash 2 copy vpt 0 360 arc closepath fill
	vpt 0 360 arc closepath} bind def
/Rec {newpath 4 2 roll moveto 1 index 0 rlineto 0 exch rlineto
	neg 0 rlineto closepath} bind def
/Square {dup Rec} bind def
/Bsquare {vpt sub exch vpt sub exch vpt2 Square} bind def
/S0 {BL [] 0 setdash 2 copy moveto 0 vpt rlineto BL Bsquare} bind def
/S1 {BL [] 0 setdash 2 copy vpt Square fill Bsquare} bind def
/S2 {BL [] 0 setdash 2 copy exch vpt sub exch vpt Square fill Bsquare} bind def
/S3 {BL [] 0 setdash 2 copy exch vpt sub exch vpt2 vpt Rec fill Bsquare} bind def
/S4 {BL [] 0 setdash 2 copy exch vpt sub exch vpt sub vpt Square fill Bsquare} bind def
/S5 {BL [] 0 setdash 2 copy 2 copy vpt Square fill
	exch vpt sub exch vpt sub vpt Square fill Bsquare} bind def
/S6 {BL [] 0 setdash 2 copy exch vpt sub exch vpt sub vpt vpt2 Rec fill Bsquare} bind def
/S7 {BL [] 0 setdash 2 copy exch vpt sub exch vpt sub vpt vpt2 Rec fill
	2 copy vpt Square fill Bsquare} bind def
/S8 {BL [] 0 setdash 2 copy vpt sub vpt Square fill Bsquare} bind def
/S9 {BL [] 0 setdash 2 copy vpt sub vpt vpt2 Rec fill Bsquare} bind def
/S10 {BL [] 0 setdash 2 copy vpt sub vpt Square fill 2 copy exch vpt sub exch vpt Square fill
	Bsquare} bind def
/S11 {BL [] 0 setdash 2 copy vpt sub vpt Square fill 2 copy exch vpt sub exch vpt2 vpt Rec fill
	Bsquare} bind def
/S12 {BL [] 0 setdash 2 copy exch vpt sub exch vpt sub vpt2 vpt Rec fill Bsquare} bind def
/S13 {BL [] 0 setdash 2 copy exch vpt sub exch vpt sub vpt2 vpt Rec fill
	2 copy vpt Square fill Bsquare} bind def
/S14 {BL [] 0 setdash 2 copy exch vpt sub exch vpt sub vpt2 vpt Rec fill
	2 copy exch vpt sub exch vpt Square fill Bsquare} bind def
/S15 {BL [] 0 setdash 2 copy Bsquare fill Bsquare} bind def
/D0 {gsave translate 45 rotate 0 0 S0 stroke grestore} bind def
/D1 {gsave translate 45 rotate 0 0 S1 stroke grestore} bind def
/D2 {gsave translate 45 rotate 0 0 S2 stroke grestore} bind def
/D3 {gsave translate 45 rotate 0 0 S3 stroke grestore} bind def
/D4 {gsave translate 45 rotate 0 0 S4 stroke grestore} bind def
/D5 {gsave translate 45 rotate 0 0 S5 stroke grestore} bind def
/D6 {gsave translate 45 rotate 0 0 S6 stroke grestore} bind def
/D7 {gsave translate 45 rotate 0 0 S7 stroke grestore} bind def
/D8 {gsave translate 45 rotate 0 0 S8 stroke grestore} bind def
/D9 {gsave translate 45 rotate 0 0 S9 stroke grestore} bind def
/D10 {gsave translate 45 rotate 0 0 S10 stroke grestore} bind def
/D11 {gsave translate 45 rotate 0 0 S11 stroke grestore} bind def
/D12 {gsave translate 45 rotate 0 0 S12 stroke grestore} bind def
/D13 {gsave translate 45 rotate 0 0 S13 stroke grestore} bind def
/D14 {gsave translate 45 rotate 0 0 S14 stroke grestore} bind def
/D15 {gsave translate 45 rotate 0 0 S15 stroke grestore} bind def
/DiaE {stroke [] 0 setdash vpt add M
  hpt neg vpt neg V hpt vpt neg V
  hpt vpt V hpt neg vpt V closepath stroke} def
/BoxE {stroke [] 0 setdash exch hpt sub exch vpt add M
  0 vpt2 neg V hpt2 0 V 0 vpt2 V
  hpt2 neg 0 V closepath stroke} def
/TriUE {stroke [] 0 setdash vpt 1.12 mul add M
  hpt neg vpt -1.62 mul V
  hpt 2 mul 0 V
  hpt neg vpt 1.62 mul V closepath stroke} def
/TriDE {stroke [] 0 setdash vpt 1.12 mul sub M
  hpt neg vpt 1.62 mul V
  hpt 2 mul 0 V
  hpt neg vpt -1.62 mul V closepath stroke} def
/PentE {stroke [] 0 setdash gsave
  translate 0 hpt M 4 {72 rotate 0 hpt L} repeat
  closepath stroke grestore} def
/CircE {stroke [] 0 setdash 
  hpt 0 360 arc stroke} def
/Opaque {gsave closepath 1 setgray fill grestore 0 setgray closepath} def
/DiaW {stroke [] 0 setdash vpt add M
  hpt neg vpt neg V hpt vpt neg V
  hpt vpt V hpt neg vpt V Opaque stroke} def
/BoxW {stroke [] 0 setdash exch hpt sub exch vpt add M
  0 vpt2 neg V hpt2 0 V 0 vpt2 V
  hpt2 neg 0 V Opaque stroke} def
/TriUW {stroke [] 0 setdash vpt 1.12 mul add M
  hpt neg vpt -1.62 mul V
  hpt 2 mul 0 V
  hpt neg vpt 1.62 mul V Opaque stroke} def
/TriDW {stroke [] 0 setdash vpt 1.12 mul sub M
  hpt neg vpt 1.62 mul V
  hpt 2 mul 0 V
  hpt neg vpt -1.62 mul V Opaque stroke} def
/PentW {stroke [] 0 setdash gsave
  translate 0 hpt M 4 {72 rotate 0 hpt L} repeat
  Opaque stroke grestore} def
/CircW {stroke [] 0 setdash 
  hpt 0 360 arc Opaque stroke} def
/BoxFill {gsave Rec 1 setgray fill grestore} def
/Density {
  /Fillden exch def
  currentrgbcolor
  /ColB exch def /ColG exch def /ColR exch def
  /ColR ColR Fillden mul Fillden sub 1 add def
  /ColG ColG Fillden mul Fillden sub 1 add def
  /ColB ColB Fillden mul Fillden sub 1 add def
  ColR ColG ColB setrgbcolor} def
/BoxColFill {gsave Rec PolyFill} def
/PolyFill {gsave Density fill grestore grestore} def
/h {rlineto rlineto rlineto gsave closepath fill grestore} bind def
%
% PostScript Level 1 Pattern Fill routine for rectangles
% Usage: x y w h s a XX PatternFill
%	x,y = lower left corner of box to be filled
%	w,h = width and height of box
%	  a = angle in degrees between lines and x-axis
%	 XX = 0/1 for no/yes cross-hatch
%
/PatternFill {gsave /PFa [ 9 2 roll ] def
  PFa 0 get PFa 2 get 2 div add PFa 1 get PFa 3 get 2 div add translate
  PFa 2 get -2 div PFa 3 get -2 div PFa 2 get PFa 3 get Rec
  TransparentPatterns {} {gsave 1 setgray fill grestore} ifelse
  clip
  currentlinewidth 0.5 mul setlinewidth
  /PFs PFa 2 get dup mul PFa 3 get dup mul add sqrt def
  0 0 M PFa 5 get rotate PFs -2 div dup translate
  0 1 PFs PFa 4 get div 1 add floor cvi
	{PFa 4 get mul 0 M 0 PFs V} for
  0 PFa 6 get ne {
	0 1 PFs PFa 4 get div 1 add floor cvi
	{PFa 4 get mul 0 2 1 roll M PFs 0 V} for
 } if
  stroke grestore} def
%
/languagelevel where
 {pop languagelevel} {1} ifelse
dup 2 lt
	{/InterpretLevel1 true def
	 /InterpretLevel3 false def}
	{/InterpretLevel1 Level1 def
	 2 gt
	    {/InterpretLevel3 Level3 def}
	    {/InterpretLevel3 false def}
	 ifelse }
 ifelse
%
% PostScript level 2 pattern fill definitions
%
/Level2PatternFill {
/Tile8x8 {/PaintType 2 /PatternType 1 /TilingType 1 /BBox [0 0 8 8] /XStep 8 /YStep 8}
	bind def
/KeepColor {currentrgbcolor [/Pattern /DeviceRGB] setcolorspace} bind def
<< Tile8x8
 /PaintProc {0.5 setlinewidth pop 0 0 M 8 8 L 0 8 M 8 0 L stroke} 
>> matrix makepattern
/Pat1 exch def
<< Tile8x8
 /PaintProc {0.5 setlinewidth pop 0 0 M 8 8 L 0 8 M 8 0 L stroke
	0 4 M 4 8 L 8 4 L 4 0 L 0 4 L stroke}
>> matrix makepattern
/Pat2 exch def
<< Tile8x8
 /PaintProc {0.5 setlinewidth pop 0 0 M 0 8 L
	8 8 L 8 0 L 0 0 L fill}
>> matrix makepattern
/Pat3 exch def
<< Tile8x8
 /PaintProc {0.5 setlinewidth pop -4 8 M 8 -4 L
	0 12 M 12 0 L stroke}
>> matrix makepattern
/Pat4 exch def
<< Tile8x8
 /PaintProc {0.5 setlinewidth pop -4 0 M 8 12 L
	0 -4 M 12 8 L stroke}
>> matrix makepattern
/Pat5 exch def
<< Tile8x8
 /PaintProc {0.5 setlinewidth pop -2 8 M 4 -4 L
	0 12 M 8 -4 L 4 12 M 10 0 L stroke}
>> matrix makepattern
/Pat6 exch def
<< Tile8x8
 /PaintProc {0.5 setlinewidth pop -2 0 M 4 12 L
	0 -4 M 8 12 L 4 -4 M 10 8 L stroke}
>> matrix makepattern
/Pat7 exch def
<< Tile8x8
 /PaintProc {0.5 setlinewidth pop 8 -2 M -4 4 L
	12 0 M -4 8 L 12 4 M 0 10 L stroke}
>> matrix makepattern
/Pat8 exch def
<< Tile8x8
 /PaintProc {0.5 setlinewidth pop 0 -2 M 12 4 L
	-4 0 M 12 8 L -4 4 M 8 10 L stroke}
>> matrix makepattern
/Pat9 exch def
/Pattern1 {PatternBgnd KeepColor Pat1 setpattern} bind def
/Pattern2 {PatternBgnd KeepColor Pat2 setpattern} bind def
/Pattern3 {PatternBgnd KeepColor Pat3 setpattern} bind def
/Pattern4 {PatternBgnd KeepColor Landscape {Pat5} {Pat4} ifelse setpattern} bind def
/Pattern5 {PatternBgnd KeepColor Landscape {Pat4} {Pat5} ifelse setpattern} bind def
/Pattern6 {PatternBgnd KeepColor Landscape {Pat9} {Pat6} ifelse setpattern} bind def
/Pattern7 {PatternBgnd KeepColor Landscape {Pat8} {Pat7} ifelse setpattern} bind def
} def
%
%
%End of PostScript Level 2 code
%
/PatternBgnd {
  TransparentPatterns {} {gsave 1 setgray fill grestore} ifelse
} def
%
% Substitute for Level 2 pattern fill codes with
% grayscale if Level 2 support is not selected.
%
/Level1PatternFill {
/Pattern1 {0.250 Density} bind def
/Pattern2 {0.500 Density} bind def
/Pattern3 {0.750 Density} bind def
/Pattern4 {0.125 Density} bind def
/Pattern5 {0.375 Density} bind def
/Pattern6 {0.625 Density} bind def
/Pattern7 {0.875 Density} bind def
} def
%
% Now test for support of Level 2 code
%
Level1 {Level1PatternFill} {Level2PatternFill} ifelse
%
/Symbol-Oblique /Symbol findfont [1 0 .167 1 0 0] makefont
dup length dict begin {1 index /FID eq {pop pop} {def} ifelse} forall
currentdict end definefont pop
%
/MFshow {
   { dup 5 get 3 ge
     { 5 get 3 eq {gsave} {grestore} ifelse }
     {dup dup 0 get findfont exch 1 get scalefont setfont
     [ currentpoint ] exch dup 2 get 0 exch R dup 5 get 2 ne {dup dup 6
     get exch 4 get {textshow} {stringwidth pop 0 R} ifelse }if dup 5 get 0 eq
     {dup 3 get {2 get neg 0 exch R pop} {pop aload pop M} ifelse} {dup 5
     get 1 eq {dup 2 get exch dup 3 get exch 6 get stringwidth pop -2 div
     dup 0 R} {dup 6 get stringwidth pop -2 div 0 R 6 get
     textshow 2 index {aload pop M neg 3 -1 roll neg R pop pop} {pop pop pop
     pop aload pop M} ifelse }ifelse }ifelse }
     ifelse }
   forall} def
/Gswidth {dup type /stringtype eq {stringwidth} {pop (n) stringwidth} ifelse} def
/MFwidth {0 exch { dup 5 get 3 ge { 5 get 3 eq { 0 } { pop } ifelse }
 {dup 3 get{dup dup 0 get findfont exch 1 get scalefont setfont
     6 get Gswidth pop add} {pop} ifelse} ifelse} forall} def
/MLshow { currentpoint stroke M
  0 exch R
  Blacktext {gsave 0 setgray MFshow grestore} {MFshow} ifelse } bind def
/MRshow { currentpoint stroke M
  exch dup MFwidth neg 3 -1 roll R
  Blacktext {gsave 0 setgray MFshow grestore} {MFshow} ifelse } bind def
/MCshow { currentpoint stroke M
  exch dup MFwidth -2 div 3 -1 roll R
  Blacktext {gsave 0 setgray MFshow grestore} {MFshow} ifelse } bind def
/XYsave    { [( ) 1 2 true false 3 ()] } bind def
/XYrestore { [( ) 1 2 true false 4 ()] } bind def
Level1 SuppressPDFMark or 
{} {
/SDict 10 dict def
systemdict /pdfmark known not {
  userdict /pdfmark systemdict /cleartomark get put
} if
SDict begin [
  /Title (Rho_Variation.eps)
  /Subject (gnuplot plot)
  /Creator (gnuplot 5.0 patchlevel 1)
  /Author (u8998)
%  /Producer (gnuplot)
%  /Keywords ()
  /CreationDate (Fri Dec 11 14:58:18 2015)
  /DOCINFO pdfmark
end
} ifelse
end
%
% Support for boxed text - Ethan A Merritt May 2005
%
/InitTextBox { userdict /TBy2 3 -1 roll put userdict /TBx2 3 -1 roll put
           userdict /TBy1 3 -1 roll put userdict /TBx1 3 -1 roll put
	   /Boxing true def } def
/ExtendTextBox { Boxing
    { gsave dup false charpath pathbbox
      dup TBy2 gt {userdict /TBy2 3 -1 roll put} {pop} ifelse
      dup TBx2 gt {userdict /TBx2 3 -1 roll put} {pop} ifelse
      dup TBy1 lt {userdict /TBy1 3 -1 roll put} {pop} ifelse
      dup TBx1 lt {userdict /TBx1 3 -1 roll put} {pop} ifelse
      grestore } if } def
/PopTextBox { newpath TBx1 TBxmargin sub TBy1 TBymargin sub M
               TBx1 TBxmargin sub TBy2 TBymargin add L
	       TBx2 TBxmargin add TBy2 TBymargin add L
	       TBx2 TBxmargin add TBy1 TBymargin sub L closepath } def
/DrawTextBox { PopTextBox stroke /Boxing false def} def
/FillTextBox { gsave PopTextBox 1 1 1 setrgbcolor fill grestore /Boxing false def} def
0 0 0 0 InitTextBox
/TBxmargin 20 def
/TBymargin 20 def
/Boxing false def
/textshow { ExtendTextBox Gshow } def
%
%%EndProlog
%%Page: 1 1
gnudict begin
gsave
doclip
50 50 translate
0.050 0.050 scale
0 setgray
newpath
(Verdana) findfont 100 scalefont setfont
BackgroundColor 0 lt 3 1 roll 0 lt exch 0 lt or or not {BackgroundColor C 1.000 0 0 7200.00 5040.00 BoxColFill} if
1.000 UL
LTb
LCb setrgbcolor
2190 3680 M
63 0 V
2183 0 R
-63 0 V
stroke
2130 3680 M
[ [(Verdana) 100.0 0.0 true true 0 ( 1.5)]
] -33.3 MRshow
1.000 UL
LTb
LCb setrgbcolor
2190 3885 M
63 0 V
2183 0 R
-63 0 V
stroke
2130 3885 M
[ [(Verdana) 100.0 0.0 true true 0 ( 2)]
] -33.3 MRshow
1.000 UL
LTb
LCb setrgbcolor
2190 4090 M
63 0 V
2183 0 R
-63 0 V
stroke
2130 4090 M
[ [(Verdana) 100.0 0.0 true true 0 ( 2.5)]
] -33.3 MRshow
1.000 UL
LTb
LCb setrgbcolor
2190 4295 M
63 0 V
2183 0 R
-63 0 V
stroke
2130 4295 M
[ [(Verdana) 100.0 0.0 true true 0 ( 3)]
] -33.3 MRshow
1.000 UL
LTb
LCb setrgbcolor
2190 4500 M
63 0 V
2183 0 R
-63 0 V
stroke
2130 4500 M
[ [(Verdana) 100.0 0.0 true true 0 ( 3.5)]
] -33.3 MRshow
1.000 UL
LTb
LCb setrgbcolor
2190 4705 M
63 0 V
2183 0 R
-63 0 V
stroke
2130 4705 M
[ [(Verdana) 100.0 0.0 true true 0 ( 4)]
] -33.3 MRshow
1.000 UL
LTb
LCb setrgbcolor
2302 3680 M
0 31 V
0 994 R
0 -31 V
131 -994 R
0 63 V
0 962 R
0 -63 V
stroke
2433 3620 M
currentpoint gsave translate -45 rotate 0 0 moveto
[ [(Verdana) 100.0 0.0 true true 0 (Jan-16)]
] -33.3 MLshow
grestore
1.000 UL
LTb
LCb setrgbcolor
2564 3680 M
0 31 V
0 994 R
0 -31 V
131 -994 R
0 63 V
0 962 R
0 -63 V
stroke
2695 3620 M
currentpoint gsave translate -45 rotate 0 0 moveto
[ [(Verdana) 100.0 0.0 true true 0 (Jan-16)]
] -33.3 MLshow
grestore
1.000 UL
LTb
LCb setrgbcolor
2826 3680 M
0 31 V
0 994 R
0 -31 V
131 -994 R
0 63 V
0 962 R
0 -63 V
stroke
2957 3620 M
currentpoint gsave translate -45 rotate 0 0 moveto
[ [(Verdana) 100.0 0.0 true true 0 (Feb-16)]
] -33.3 MLshow
grestore
1.000 UL
LTb
LCb setrgbcolor
3088 3680 M
0 31 V
0 994 R
0 -31 V
131 -994 R
0 63 V
0 962 R
0 -63 V
stroke
3219 3620 M
currentpoint gsave translate -45 rotate 0 0 moveto
[ [(Verdana) 100.0 0.0 true true 0 (Feb-16)]
] -33.3 MLshow
grestore
1.000 UL
LTb
LCb setrgbcolor
3350 3680 M
0 31 V
0 994 R
0 -31 V
131 -994 R
0 63 V
0 962 R
0 -63 V
stroke
3481 3620 M
currentpoint gsave translate -45 rotate 0 0 moveto
[ [(Verdana) 100.0 0.0 true true 0 (Mar-16)]
] -33.3 MLshow
grestore
1.000 UL
LTb
LCb setrgbcolor
3612 3680 M
0 31 V
0 994 R
0 -31 V
131 -994 R
0 63 V
0 962 R
0 -63 V
stroke
3743 3620 M
currentpoint gsave translate -45 rotate 0 0 moveto
[ [(Verdana) 100.0 0.0 true true 0 (Mar-16)]
] -33.3 MLshow
grestore
1.000 UL
LTb
LCb setrgbcolor
3875 3680 M
0 31 V
0 994 R
0 -31 V
131 -994 R
0 63 V
0 962 R
0 -63 V
stroke
4006 3620 M
currentpoint gsave translate -45 rotate 0 0 moveto
[ [(Verdana) 100.0 0.0 true true 0 (Apr-16)]
] -33.3 MLshow
grestore
1.000 UL
LTb
LCb setrgbcolor
4137 3680 M
0 31 V
0 994 R
0 -31 V
131 -994 R
0 63 V
0 962 R
0 -63 V
stroke
4268 3620 M
currentpoint gsave translate -45 rotate 0 0 moveto
[ [(Verdana) 100.0 0.0 true true 0 (Apr-16)]
] -33.3 MLshow
grestore
1.000 UL
LTb
LCb setrgbcolor
4399 3680 M
0 31 V
0 994 R
0 -31 V
stroke
LTb
LCb setrgbcolor
2190 4705 N
0 -1025 V
2246 0 V
0 1025 V
-2246 0 V
Z stroke
1.000 UP
1.000 UL
LTb
LCb setrgbcolor
LCb setrgbcolor
3313 4855 M
[ [(Verdana) 100.0 0.0 true true 0 (ATM Prices)]
] -33.3 MCshow
% Begin plot #1
1.000 UP
1.000 UL
LTb
0.58 0.00 0.83 C LCb setrgbcolor
4916 4442 M
[ [(Verdana) 100.0 0.0 true true 0 (market)]
] -33.3 MRshow
1.000 UP
1.000 UL
LTb
0.58 0.00 0.83 C 4976 4442 M
303 0 V
2377 3733 M
580 337 V
543 344 V
580 209 V
2377 3733 Box
2957 4070 Box
3500 4414 Box
4080 4623 Box
5127 4442 Box
% End plot #1
% Begin plot #2
1.000 UP
1.000 UL
LTb
0.00 0.62 0.45 C LCb setrgbcolor
4916 4342 M
[ [(Verdana) 100.0 0.0 true true 0 (-0.90)]
] -33.3 MRshow
1.000 UP
1.000 UL
LTb
0.00 0.62 0.45 C 4976 4342 M
303 0 V
2377 3742 M
580 254 V
543 110 V
580 70 V
2377 3742 Circle
2957 3996 Circle
3500 4106 Circle
4080 4176 Circle
5127 4342 Circle
% End plot #2
% Begin plot #3
1.000 UP
1.000 UL
LTb
0.34 0.71 0.91 C LCb setrgbcolor
4916 4242 M
[ [(Verdana) 100.0 0.0 true true 0 (-0.50)]
] -33.3 MRshow
1.000 UP
1.000 UL
LTb
0.34 0.71 0.91 C 4976 4242 M
303 0 V
2377 3762 M
580 267 V
543 127 V
580 90 V
2377 3762 Circle
2957 4029 Circle
3500 4156 Circle
4080 4246 Circle
5127 4242 Circle
% End plot #3
% Begin plot #4
1.000 UP
1.000 UL
LTb
0.90 0.62 0.00 C LCb setrgbcolor
4916 4142 M
[ [(Verdana) 100.0 0.0 true true 0 (0.00)]
] -33.3 MRshow
1.000 UP
1.000 UL
LTb
0.90 0.62 0.00 C 4976 4142 M
303 0 V
2377 3783 M
580 287 V
543 147 V
580 111 V
2377 3783 Circle
2957 4070 Circle
3500 4217 Circle
4080 4328 Circle
5127 4142 Circle
% End plot #4
% Begin plot #5
1.000 UP
1.000 UL
LTb
0.94 0.89 0.26 C LCb setrgbcolor
4916 4042 M
[ [(Verdana) 100.0 0.0 true true 0 (0.50)]
] -33.3 MRshow
1.000 UP
1.000 UL
LTb
0.94 0.89 0.26 C 4976 4042 M
303 0 V
2377 3803 M
580 303 V
543 169 V
580 131 V
2377 3803 Circle
2957 4106 Circle
3500 4275 Circle
4080 4406 Circle
5127 4042 Circle
% End plot #5
% Begin plot #6
1.000 UP
1.000 UL
LTb
0.00 0.45 0.70 C LCb setrgbcolor
4916 3942 M
[ [(Verdana) 100.0 0.0 true true 0 (0.90)]
] -33.3 MRshow
1.000 UP
1.000 UL
LTb
0.00 0.45 0.70 C 4976 3942 M
303 0 V
2377 3819 M
580 316 V
543 181 V
580 147 V
2377 3819 Circle
2957 4135 Circle
3500 4316 Circle
4080 4463 Circle
5127 3942 Circle
% End plot #6
2.000 UL
LTb
LCb setrgbcolor
1.000 UL
LTb
LCb setrgbcolor
2190 4705 N
0 -1025 V
2246 0 V
0 1025 V
-2246 0 V
Z stroke
1.000 UP
1.000 UL
LTb
LCb setrgbcolor
1.000 UL
LTb
LCb setrgbcolor
390 1880 M
63 0 V
2183 0 R
-63 0 V
stroke
330 1880 M
[ [(Verdana) 100.0 0.0 true true 0 ( 1.2)]
] -33.3 MRshow
1.000 UL
LTb
LCb setrgbcolor
390 1998 M
63 0 V
2183 0 R
-63 0 V
stroke
330 1998 M
[ [(Verdana) 100.0 0.0 true true 0 ( 1.3)]
] -33.3 MRshow
1.000 UL
LTb
LCb setrgbcolor
390 2116 M
63 0 V
2183 0 R
-63 0 V
stroke
330 2116 M
[ [(Verdana) 100.0 0.0 true true 0 ( 1.4)]
] -33.3 MRshow
1.000 UL
LTb
LCb setrgbcolor
390 2234 M
63 0 V
2183 0 R
-63 0 V
stroke
330 2234 M
[ [(Verdana) 100.0 0.0 true true 0 ( 1.5)]
] -33.3 MRshow
1.000 UL
LTb
LCb setrgbcolor
390 2352 M
63 0 V
2183 0 R
-63 0 V
stroke
330 2352 M
[ [(Verdana) 100.0 0.0 true true 0 ( 1.6)]
] -33.3 MRshow
1.000 UL
LTb
LCb setrgbcolor
390 2470 M
63 0 V
2183 0 R
-63 0 V
stroke
330 2470 M
[ [(Verdana) 100.0 0.0 true true 0 ( 1.7)]
] -33.3 MRshow
1.000 UL
LTb
LCb setrgbcolor
390 2587 M
63 0 V
2183 0 R
-63 0 V
stroke
330 2587 M
[ [(Verdana) 100.0 0.0 true true 0 ( 1.8)]
] -33.3 MRshow
1.000 UL
LTb
LCb setrgbcolor
390 2705 M
63 0 V
2183 0 R
-63 0 V
stroke
330 2705 M
[ [(Verdana) 100.0 0.0 true true 0 ( 1.9)]
] -33.3 MRshow
1.000 UL
LTb
LCb setrgbcolor
390 2823 M
63 0 V
2183 0 R
-63 0 V
stroke
330 2823 M
[ [(Verdana) 100.0 0.0 true true 0 ( 2)]
] -33.3 MRshow
1.000 UL
LTb
LCb setrgbcolor
390 2941 M
63 0 V
2183 0 R
-63 0 V
stroke
330 2941 M
[ [(Verdana) 100.0 0.0 true true 0 ( 2.1)]
] -33.3 MRshow
1.000 UL
LTb
LCb setrgbcolor
390 3059 M
63 0 V
2183 0 R
-63 0 V
stroke
330 3059 M
[ [(Verdana) 100.0 0.0 true true 0 ( 2.2)]
] -33.3 MRshow
1.000 UL
LTb
LCb setrgbcolor
390 1880 M
0 63 V
0 1116 R
0 -63 V
stroke
390 1780 M
[ [(Verdana) 100.0 0.0 true true 0 ( 46.2)]
] -33.3 MCshow
1.000 UL
LTb
LCb setrgbcolor
764 1880 M
0 63 V
0 1116 R
0 -63 V
stroke
764 1780 M
[ [(Verdana) 100.0 0.0 true true 0 ( 46.4)]
] -33.3 MCshow
1.000 UL
LTb
LCb setrgbcolor
1139 1880 M
0 63 V
0 1116 R
0 -63 V
stroke
1139 1780 M
[ [(Verdana) 100.0 0.0 true true 0 ( 46.6)]
] -33.3 MCshow
1.000 UL
LTb
LCb setrgbcolor
1513 1880 M
0 63 V
0 1116 R
0 -63 V
stroke
1513 1780 M
[ [(Verdana) 100.0 0.0 true true 0 ( 46.8)]
] -33.3 MCshow
1.000 UL
LTb
LCb setrgbcolor
1887 1880 M
0 63 V
0 1116 R
0 -63 V
stroke
1887 1780 M
[ [(Verdana) 100.0 0.0 true true 0 ( 47)]
] -33.3 MCshow
1.000 UL
LTb
LCb setrgbcolor
2262 1880 M
0 63 V
0 1116 R
0 -63 V
stroke
2262 1780 M
[ [(Verdana) 100.0 0.0 true true 0 ( 47.2)]
] -33.3 MCshow
1.000 UL
LTb
LCb setrgbcolor
2636 1880 M
0 63 V
0 1116 R
0 -63 V
stroke
2636 1780 M
[ [(Verdana) 100.0 0.0 true true 0 ( 47.4)]
] -33.3 MCshow
1.000 UL
LTb
LCb setrgbcolor
1.000 UL
LTb
LCb setrgbcolor
390 3059 N
0 -1179 V
2246 0 V
0 1179 V
-2246 0 V
Z stroke
1.000 UP
1.000 UL
LTb
LCb setrgbcolor
LCb setrgbcolor
1513 3209 M
[ [(Verdana) 100.0 0.0 true true 0 (Smile 1M)]
] -33.3 MCshow
% Begin plot #1
1.000 UP
1.000 UL
LTb
0.58 0.00 0.83 C LCb setrgbcolor
3116 2719 M
[ [(Verdana) 100.0 0.0 true true 0 (market)]
] -33.3 MRshow
1.000 UP
1.000 UL
LTb
0.58 0.00 0.83 C 3176 2719 M
303 0 V
409 2682 M
936 -295 V
935 -424 V
409 2682 Box
1345 2387 Box
2280 1963 Box
3327 2719 Box
% End plot #1
% Begin plot #2
1.000 UP
1.000 UL
LTb
0.00 0.62 0.45 C LCb setrgbcolor
3116 2619 M
[ [(Verdana) 100.0 0.0 true true 0 (-0.90)]
] -33.3 MRshow
1.000 UP
1.000 UL
LTb
0.00 0.62 0.45 C 3176 2619 M
303 0 V
409 2753 M
936 -337 V
935 -304 V
409 2753 Circle
1345 2416 Circle
2280 2112 Circle
3327 2619 Circle
% End plot #2
% Begin plot #3
1.000 UP
1.000 UL
LTb
0.34 0.71 0.91 C LCb setrgbcolor
3116 2519 M
[ [(Verdana) 100.0 0.0 true true 0 (-0.50)]
] -33.3 MRshow
1.000 UP
1.000 UL
LTb
0.34 0.71 0.91 C 3176 2519 M
303 0 V
409 2803 M
936 -336 V
935 -302 V
409 2803 Circle
1345 2467 Circle
2280 2165 Circle
3327 2519 Circle
% End plot #3
% Begin plot #4
1.000 UP
1.000 UL
LTb
0.90 0.62 0.00 C LCb setrgbcolor
3116 2419 M
[ [(Verdana) 100.0 0.0 true true 0 (0.00)]
] -33.3 MRshow
1.000 UP
1.000 UL
LTb
0.90 0.62 0.00 C 3176 2419 M
303 0 V
409 2863 M
936 -333 V
935 -302 V
409 2863 Circle
1345 2530 Circle
2280 2228 Circle
3327 2419 Circle
% End plot #4
% Begin plot #5
1.000 UP
1.000 UL
LTb
0.94 0.89 0.26 C LCb setrgbcolor
3116 2319 M
[ [(Verdana) 100.0 0.0 true true 0 (0.50)]
] -33.3 MRshow
1.000 UP
1.000 UL
LTb
0.94 0.89 0.26 C 3176 2319 M
303 0 V
409 2921 M
936 -331 V
935 -301 V
409 2921 Circle
1345 2590 Circle
2280 2289 Circle
3327 2319 Circle
% End plot #5
% Begin plot #6
1.000 UP
1.000 UL
LTb
0.00 0.45 0.70 C LCb setrgbcolor
3116 2219 M
[ [(Verdana) 100.0 0.0 true true 0 (0.90)]
] -33.3 MRshow
1.000 UP
1.000 UL
LTb
0.00 0.45 0.70 C 3176 2219 M
303 0 V
409 2966 M
936 -329 V
935 -301 V
409 2966 Circle
1345 2637 Circle
2280 2336 Circle
3327 2219 Circle
% End plot #6
2.000 UL
LTb
LCb setrgbcolor
1.000 UL
LTb
LCb setrgbcolor
390 3059 N
0 -1179 V
2246 0 V
0 1179 V
-2246 0 V
Z stroke
1.000 UP
1.000 UL
LTb
LCb setrgbcolor
1.000 UL
LTb
LCb setrgbcolor
3990 1880 M
63 0 V
2183 0 R
-63 0 V
stroke
3930 1880 M
[ [(Verdana) 100.0 0.0 true true 0 ( 2)]
] -33.3 MRshow
1.000 UL
LTb
LCb setrgbcolor
3990 2077 M
63 0 V
2183 0 R
-63 0 V
stroke
3930 2077 M
[ [(Verdana) 100.0 0.0 true true 0 ( 2.2)]
] -33.3 MRshow
1.000 UL
LTb
LCb setrgbcolor
3990 2273 M
63 0 V
2183 0 R
-63 0 V
stroke
3930 2273 M
[ [(Verdana) 100.0 0.0 true true 0 ( 2.4)]
] -33.3 MRshow
1.000 UL
LTb
LCb setrgbcolor
3990 2470 M
63 0 V
2183 0 R
-63 0 V
stroke
3930 2470 M
[ [(Verdana) 100.0 0.0 true true 0 ( 2.6)]
] -33.3 MRshow
1.000 UL
LTb
LCb setrgbcolor
3990 2666 M
63 0 V
2183 0 R
-63 0 V
stroke
3930 2666 M
[ [(Verdana) 100.0 0.0 true true 0 ( 2.8)]
] -33.3 MRshow
1.000 UL
LTb
LCb setrgbcolor
3990 2863 M
63 0 V
2183 0 R
-63 0 V
stroke
3930 2863 M
[ [(Verdana) 100.0 0.0 true true 0 ( 3)]
] -33.3 MRshow
1.000 UL
LTb
LCb setrgbcolor
3990 3059 M
63 0 V
2183 0 R
-63 0 V
stroke
3930 3059 M
[ [(Verdana) 100.0 0.0 true true 0 ( 3.2)]
] -33.3 MRshow
1.000 UL
LTb
LCb setrgbcolor
3990 1880 M
0 63 V
0 1116 R
0 -63 V
stroke
3990 1780 M
[ [(Verdana) 100.0 0.0 true true 0 ( 46.6)]
] -33.3 MCshow
1.000 UL
LTb
LCb setrgbcolor
4364 1880 M
0 63 V
0 1116 R
0 -63 V
stroke
4364 1780 M
[ [(Verdana) 100.0 0.0 true true 0 ( 46.8)]
] -33.3 MCshow
1.000 UL
LTb
LCb setrgbcolor
4739 1880 M
0 63 V
0 1116 R
0 -63 V
stroke
4739 1780 M
[ [(Verdana) 100.0 0.0 true true 0 ( 47)]
] -33.3 MCshow
1.000 UL
LTb
LCb setrgbcolor
5113 1880 M
0 63 V
0 1116 R
0 -63 V
stroke
5113 1780 M
[ [(Verdana) 100.0 0.0 true true 0 ( 47.2)]
] -33.3 MCshow
1.000 UL
LTb
LCb setrgbcolor
5487 1880 M
0 63 V
0 1116 R
0 -63 V
stroke
5487 1780 M
[ [(Verdana) 100.0 0.0 true true 0 ( 47.4)]
] -33.3 MCshow
1.000 UL
LTb
LCb setrgbcolor
5862 1880 M
0 63 V
0 1116 R
0 -63 V
stroke
5862 1780 M
[ [(Verdana) 100.0 0.0 true true 0 ( 47.6)]
] -33.3 MCshow
1.000 UL
LTb
LCb setrgbcolor
6236 1880 M
0 63 V
0 1116 R
0 -63 V
stroke
6236 1780 M
[ [(Verdana) 100.0 0.0 true true 0 ( 47.8)]
] -33.3 MCshow
1.000 UL
LTb
LCb setrgbcolor
1.000 UL
LTb
LCb setrgbcolor
3990 3059 N
0 -1179 V
2246 0 V
0 1179 V
-2246 0 V
Z stroke
1.000 UP
1.000 UL
LTb
LCb setrgbcolor
LCb setrgbcolor
5113 3209 M
[ [(Verdana) 100.0 0.0 true true 0 (Smile 2M)]
] -33.3 MCshow
% Begin plot #1
1.000 UP
1.000 UL
LTb
0.58 0.00 0.83 C LCb setrgbcolor
6716 2719 M
[ [(Verdana) 100.0 0.0 true true 0 (market)]
] -33.3 MRshow
1.000 UP
1.000 UL
LTb
0.58 0.00 0.83 C 6776 2719 M
303 0 V
4215 2961 M
935 -639 V
936 -196 V
4215 2961 Box
5150 2322 Box
6086 2126 Box
6927 2719 Box
% End plot #1
% Begin plot #2
1.000 UP
1.000 UL
LTb
0.00 0.62 0.45 C LCb setrgbcolor
6716 2619 M
[ [(Verdana) 100.0 0.0 true true 0 (-0.90)]
] -33.3 MRshow
1.000 UP
1.000 UL
LTb
0.00 0.62 0.45 C 6776 2619 M
303 0 V
4215 2421 M
935 -275 V
936 -255 V
4215 2421 Circle
5150 2146 Circle
6086 1891 Circle
6927 2619 Circle
% End plot #2
% Begin plot #3
1.000 UP
1.000 UL
LTb
0.34 0.71 0.91 C LCb setrgbcolor
6716 2519 M
[ [(Verdana) 100.0 0.0 true true 0 (-0.50)]
] -33.3 MRshow
1.000 UP
1.000 UL
LTb
0.34 0.71 0.91 C 6776 2519 M
303 0 V
4215 2498 M
935 -274 V
936 -253 V
4215 2498 Circle
5150 2224 Circle
6086 1971 Circle
6927 2519 Circle
% End plot #3
% Begin plot #4
1.000 UP
1.000 UL
LTb
0.90 0.62 0.00 C LCb setrgbcolor
6716 2419 M
[ [(Verdana) 100.0 0.0 true true 0 (0.00)]
] -33.3 MRshow
1.000 UP
1.000 UL
LTb
0.90 0.62 0.00 C 6776 2419 M
303 0 V
4215 2589 M
935 -271 V
936 -252 V
4215 2589 Circle
5150 2318 Circle
6086 2066 Circle
6927 2419 Circle
% End plot #4
% Begin plot #5
1.000 UP
1.000 UL
LTb
0.94 0.89 0.26 C LCb setrgbcolor
6716 2319 M
[ [(Verdana) 100.0 0.0 true true 0 (0.50)]
] -33.3 MRshow
1.000 UP
1.000 UL
LTb
0.94 0.89 0.26 C 6776 2319 M
303 0 V
4215 2677 M
935 -270 V
936 -251 V
4215 2677 Circle
5150 2407 Circle
6086 2156 Circle
6927 2319 Circle
% End plot #5
% Begin plot #6
1.000 UP
1.000 UL
LTb
0.00 0.45 0.70 C LCb setrgbcolor
6716 2219 M
[ [(Verdana) 100.0 0.0 true true 0 (0.90)]
] -33.3 MRshow
1.000 UP
1.000 UL
LTb
0.00 0.45 0.70 C 6776 2219 M
303 0 V
4215 2744 M
935 -268 V
936 -250 V
4215 2744 Circle
5150 2476 Circle
6086 2226 Circle
6927 2219 Circle
% End plot #6
2.000 UL
LTb
LCb setrgbcolor
1.000 UL
LTb
LCb setrgbcolor
3990 3059 N
0 -1179 V
2246 0 V
0 1179 V
-2246 0 V
Z stroke
1.000 UP
1.000 UL
LTb
LCb setrgbcolor
1.000 UL
LTb
LCb setrgbcolor
390 200 M
63 0 V
2183 0 R
-63 0 V
stroke
330 200 M
[ [(Verdana) 100.0 0.0 true true 0 ( 2.2)]
] -33.3 MRshow
1.000 UL
LTb
LCb setrgbcolor
390 397 M
63 0 V
2183 0 R
-63 0 V
stroke
330 397 M
[ [(Verdana) 100.0 0.0 true true 0 ( 2.4)]
] -33.3 MRshow
1.000 UL
LTb
LCb setrgbcolor
390 593 M
63 0 V
2183 0 R
-63 0 V
stroke
330 593 M
[ [(Verdana) 100.0 0.0 true true 0 ( 2.6)]
] -33.3 MRshow
1.000 UL
LTb
LCb setrgbcolor
390 790 M
63 0 V
2183 0 R
-63 0 V
stroke
330 790 M
[ [(Verdana) 100.0 0.0 true true 0 ( 2.8)]
] -33.3 MRshow
1.000 UL
LTb
LCb setrgbcolor
390 987 M
63 0 V
2183 0 R
-63 0 V
stroke
330 987 M
[ [(Verdana) 100.0 0.0 true true 0 ( 3)]
] -33.3 MRshow
1.000 UL
LTb
LCb setrgbcolor
390 1183 M
63 0 V
2183 0 R
-63 0 V
stroke
330 1183 M
[ [(Verdana) 100.0 0.0 true true 0 ( 3.2)]
] -33.3 MRshow
1.000 UL
LTb
LCb setrgbcolor
390 1380 M
63 0 V
2183 0 R
-63 0 V
stroke
330 1380 M
[ [(Verdana) 100.0 0.0 true true 0 ( 3.4)]
] -33.3 MRshow
1.000 UL
LTb
LCb setrgbcolor
390 200 M
0 63 V
0 1117 R
0 -63 V
stroke
390 100 M
[ [(Verdana) 100.0 0.0 true true 0 ( 47.4)]
] -33.3 MCshow
1.000 UL
LTb
LCb setrgbcolor
764 200 M
0 63 V
0 1117 R
0 -63 V
stroke
764 100 M
[ [(Verdana) 100.0 0.0 true true 0 ( 47.6)]
] -33.3 MCshow
1.000 UL
LTb
LCb setrgbcolor
1139 200 M
0 63 V
0 1117 R
0 -63 V
stroke
1139 100 M
[ [(Verdana) 100.0 0.0 true true 0 ( 47.8)]
] -33.3 MCshow
1.000 UL
LTb
LCb setrgbcolor
1513 200 M
0 63 V
0 1117 R
0 -63 V
stroke
1513 100 M
[ [(Verdana) 100.0 0.0 true true 0 ( 48)]
] -33.3 MCshow
1.000 UL
LTb
LCb setrgbcolor
1887 200 M
0 63 V
0 1117 R
0 -63 V
stroke
1887 100 M
[ [(Verdana) 100.0 0.0 true true 0 ( 48.2)]
] -33.3 MCshow
1.000 UL
LTb
LCb setrgbcolor
2262 200 M
0 63 V
0 1117 R
0 -63 V
stroke
2262 100 M
[ [(Verdana) 100.0 0.0 true true 0 ( 48.4)]
] -33.3 MCshow
1.000 UL
LTb
LCb setrgbcolor
2636 200 M
0 63 V
0 1117 R
0 -63 V
stroke
2636 100 M
[ [(Verdana) 100.0 0.0 true true 0 ( 48.6)]
] -33.3 MCshow
1.000 UL
LTb
LCb setrgbcolor
1.000 UL
LTb
LCb setrgbcolor
390 1380 N
390 200 L
2246 0 V
0 1180 V
-2246 0 V
Z stroke
1.000 UP
1.000 UL
LTb
LCb setrgbcolor
LCb setrgbcolor
1513 1530 M
[ [(Verdana) 100.0 0.0 true true 0 (Smile 3M)]
] -33.3 MCshow
% Begin plot #1
1.000 UP
1.000 UL
LTb
0.58 0.00 0.83 C LCb setrgbcolor
3116 1040 M
[ [(Verdana) 100.0 0.0 true true 0 (market)]
] -33.3 MRshow
1.000 UP
1.000 UL
LTb
0.58 0.00 0.83 C 3176 1040 M
303 0 V
465 1282 M
936 -10 V
936 -256 V
465 1282 Box
1401 1272 Box
2337 1016 Box
3327 1040 Box
% End plot #1
% Begin plot #2
1.000 UP
1.000 UL
LTb
0.00 0.62 0.45 C LCb setrgbcolor
3116 940 M
[ [(Verdana) 100.0 0.0 true true 0 (-0.90)]
] -33.3 MRshow
1.000 UP
1.000 UL
LTb
0.00 0.62 0.45 C 3176 940 M
303 0 V
465 800 M
1401 533 L
2337 284 L
465 800 Circle
1401 533 Circle
2337 284 Circle
3327 940 Circle
% End plot #2
% Begin plot #3
1.000 UP
1.000 UL
LTb
0.34 0.71 0.91 C LCb setrgbcolor
3116 840 M
[ [(Verdana) 100.0 0.0 true true 0 (-0.50)]
] -33.3 MRshow
1.000 UP
1.000 UL
LTb
0.34 0.71 0.91 C 3176 840 M
303 0 V
465 920 M
1401 655 L
2337 407 L
465 920 Circle
1401 655 Circle
2337 407 Circle
3327 840 Circle
% End plot #3
% Begin plot #4
1.000 UP
1.000 UL
LTb
0.90 0.62 0.00 C LCb setrgbcolor
3116 740 M
[ [(Verdana) 100.0 0.0 true true 0 (0.00)]
] -33.3 MRshow
1.000 UP
1.000 UL
LTb
0.90 0.62 0.00 C 3176 740 M
303 0 V
465 1061 M
1401 799 L
2337 553 L
465 1061 Circle
1401 799 Circle
2337 553 Circle
3327 740 Circle
% End plot #4
% Begin plot #5
1.000 UP
1.000 UL
LTb
0.94 0.89 0.26 C LCb setrgbcolor
3116 640 M
[ [(Verdana) 100.0 0.0 true true 0 (0.50)]
] -33.3 MRshow
1.000 UP
1.000 UL
LTb
0.94 0.89 0.26 C 3176 640 M
303 0 V
465 1194 M
1401 934 L
2337 689 L
465 1194 Circle
1401 934 Circle
2337 689 Circle
3327 640 Circle
% End plot #5
% Begin plot #6
1.000 UP
1.000 UL
LTb
0.00 0.45 0.70 C LCb setrgbcolor
3116 540 M
[ [(Verdana) 100.0 0.0 true true 0 (0.90)]
] -33.3 MRshow
1.000 UP
1.000 UL
LTb
0.00 0.45 0.70 C 3176 540 M
303 0 V
465 1295 M
936 -258 V
2337 794 L
465 1295 Circle
1401 1037 Circle
2337 794 Circle
3327 540 Circle
% End plot #6
2.000 UL
LTb
LCb setrgbcolor
1.000 UL
LTb
LCb setrgbcolor
390 1380 N
390 200 L
2246 0 V
0 1180 V
-2246 0 V
Z stroke
1.000 UP
1.000 UL
LTb
LCb setrgbcolor
1.000 UL
LTb
LCb setrgbcolor
3990 200 M
63 0 V
2183 0 R
-63 0 V
stroke
3930 200 M
[ [(Verdana) 100.0 0.0 true true 0 ( 2.4)]
] -33.3 MRshow
1.000 UL
LTb
LCb setrgbcolor
3990 331 M
63 0 V
2183 0 R
-63 0 V
stroke
3930 331 M
[ [(Verdana) 100.0 0.0 true true 0 ( 2.6)]
] -33.3 MRshow
1.000 UL
LTb
LCb setrgbcolor
3990 462 M
63 0 V
2183 0 R
-63 0 V
stroke
3930 462 M
[ [(Verdana) 100.0 0.0 true true 0 ( 2.8)]
] -33.3 MRshow
1.000 UL
LTb
LCb setrgbcolor
3990 593 M
63 0 V
2183 0 R
-63 0 V
stroke
3930 593 M
[ [(Verdana) 100.0 0.0 true true 0 ( 3)]
] -33.3 MRshow
1.000 UL
LTb
LCb setrgbcolor
3990 724 M
63 0 V
2183 0 R
-63 0 V
stroke
3930 724 M
[ [(Verdana) 100.0 0.0 true true 0 ( 3.2)]
] -33.3 MRshow
1.000 UL
LTb
LCb setrgbcolor
3990 856 M
63 0 V
2183 0 R
-63 0 V
stroke
3930 856 M
[ [(Verdana) 100.0 0.0 true true 0 ( 3.4)]
] -33.3 MRshow
1.000 UL
LTb
LCb setrgbcolor
3990 987 M
63 0 V
2183 0 R
-63 0 V
stroke
3930 987 M
[ [(Verdana) 100.0 0.0 true true 0 ( 3.6)]
] -33.3 MRshow
1.000 UL
LTb
LCb setrgbcolor
3990 1118 M
63 0 V
2183 0 R
-63 0 V
stroke
3930 1118 M
[ [(Verdana) 100.0 0.0 true true 0 ( 3.8)]
] -33.3 MRshow
1.000 UL
LTb
LCb setrgbcolor
3990 1249 M
63 0 V
2183 0 R
-63 0 V
stroke
3930 1249 M
[ [(Verdana) 100.0 0.0 true true 0 ( 4)]
] -33.3 MRshow
1.000 UL
LTb
LCb setrgbcolor
3990 1380 M
63 0 V
2183 0 R
-63 0 V
stroke
3930 1380 M
[ [(Verdana) 100.0 0.0 true true 0 ( 4.2)]
] -33.3 MRshow
1.000 UL
LTb
LCb setrgbcolor
3990 200 M
0 63 V
0 1117 R
0 -63 V
stroke
3990 100 M
[ [(Verdana) 100.0 0.0 true true 0 ( 48)]
] -33.3 MCshow
1.000 UL
LTb
LCb setrgbcolor
4364 200 M
0 63 V
0 1117 R
0 -63 V
stroke
4364 100 M
[ [(Verdana) 100.0 0.0 true true 0 ( 48.2)]
] -33.3 MCshow
1.000 UL
LTb
LCb setrgbcolor
4739 200 M
0 63 V
0 1117 R
0 -63 V
stroke
4739 100 M
[ [(Verdana) 100.0 0.0 true true 0 ( 48.4)]
] -33.3 MCshow
1.000 UL
LTb
LCb setrgbcolor
5113 200 M
0 63 V
0 1117 R
0 -63 V
stroke
5113 100 M
[ [(Verdana) 100.0 0.0 true true 0 ( 48.6)]
] -33.3 MCshow
1.000 UL
LTb
LCb setrgbcolor
5487 200 M
0 63 V
0 1117 R
0 -63 V
stroke
5487 100 M
[ [(Verdana) 100.0 0.0 true true 0 ( 48.8)]
] -33.3 MCshow
1.000 UL
LTb
LCb setrgbcolor
5862 200 M
0 63 V
0 1117 R
0 -63 V
stroke
5862 100 M
[ [(Verdana) 100.0 0.0 true true 0 ( 49)]
] -33.3 MCshow
1.000 UL
LTb
LCb setrgbcolor
6236 200 M
0 63 V
0 1117 R
0 -63 V
stroke
6236 100 M
[ [(Verdana) 100.0 0.0 true true 0 ( 49.2)]
] -33.3 MCshow
1.000 UL
LTb
LCb setrgbcolor
1.000 UL
LTb
LCb setrgbcolor
3990 1380 N
0 -1180 V
2246 0 V
0 1180 V
-2246 0 V
Z stroke
1.000 UP
1.000 UL
LTb
LCb setrgbcolor
LCb setrgbcolor
5113 1530 M
[ [(Verdana) 100.0 0.0 true true 0 (Smile 4M)]
] -33.3 MCshow
% Begin plot #1
1.000 UP
1.000 UL
LTb
0.58 0.00 0.83 C LCb setrgbcolor
6716 1040 M
[ [(Verdana) 100.0 0.0 true true 0 (market)]
] -33.3 MRshow
1.000 UP
1.000 UL
LTb
0.58 0.00 0.83 C 6776 1040 M
303 0 V
4196 1282 M
936 -164 V
6068 960 L
4196 1282 Box
5132 1118 Box
6068 960 Box
6927 1040 Box
% End plot #1
% Begin plot #2
1.000 UP
1.000 UL
LTb
0.00 0.62 0.45 C LCb setrgbcolor
6716 940 M
[ [(Verdana) 100.0 0.0 true true 0 (-0.90)]
] -33.3 MRshow
1.000 UP
1.000 UL
LTb
0.00 0.62 0.45 C 6776 940 M
303 0 V
4196 577 M
5132 405 L
6068 244 L
4196 577 Circle
5132 405 Circle
6068 244 Circle
6927 940 Circle
% End plot #2
% Begin plot #3
1.000 UP
1.000 UL
LTb
0.34 0.71 0.91 C LCb setrgbcolor
6716 840 M
[ [(Verdana) 100.0 0.0 true true 0 (-0.50)]
] -33.3 MRshow
1.000 UP
1.000 UL
LTb
0.34 0.71 0.91 C 6776 840 M
303 0 V
4196 687 M
5132 516 L
6068 356 L
4196 687 Circle
5132 516 Circle
6068 356 Circle
6927 840 Circle
% End plot #3
% Begin plot #4
1.000 UP
1.000 UL
LTb
0.90 0.62 0.00 C LCb setrgbcolor
6716 740 M
[ [(Verdana) 100.0 0.0 true true 0 (0.00)]
] -33.3 MRshow
1.000 UP
1.000 UL
LTb
0.90 0.62 0.00 C 6776 740 M
303 0 V
4196 815 M
5132 646 L
6068 487 L
4196 815 Circle
5132 646 Circle
6068 487 Circle
6927 740 Circle
% End plot #4
% Begin plot #5
1.000 UP
1.000 UL
LTb
0.94 0.89 0.26 C LCb setrgbcolor
6716 640 M
[ [(Verdana) 100.0 0.0 true true 0 (0.50)]
] -33.3 MRshow
1.000 UP
1.000 UL
LTb
0.94 0.89 0.26 C 6776 640 M
303 0 V
4196 935 M
5132 768 L
6068 609 L
4196 935 Circle
5132 768 Circle
6068 609 Circle
6927 640 Circle
% End plot #5
% Begin plot #6
1.000 UP
1.000 UL
LTb
0.00 0.45 0.70 C LCb setrgbcolor
6716 540 M
[ [(Verdana) 100.0 0.0 true true 0 (0.90)]
] -33.3 MRshow
1.000 UP
1.000 UL
LTb
0.00 0.45 0.70 C 6776 540 M
303 0 V
4196 1025 M
5132 860 L
6068 702 L
4196 1025 Circle
5132 860 Circle
6068 702 Circle
6927 540 Circle
% End plot #6
2.000 UL
LTb
LCb setrgbcolor
1.000 UL
LTb
LCb setrgbcolor
3990 1380 N
0 -1180 V
2246 0 V
0 1180 V
-2246 0 V
Z stroke
1.000 UP
1.000 UL
LTb
LCb setrgbcolor
stroke
grestore
end
showpage
%%Trailer
%%DocumentFonts: Verdana
