%!PS-Adobe-2.0 EPSF-2.0
%%Title: Sigma_L_Variation.eps
%%Creator: gnuplot 5.0 patchlevel 1
%%CreationDate: Fri Dec 11 12:58:31 2015
%%DocumentFonts: (atend)
%%BoundingBox: 50 50 410 302
%%EndComments
%%BeginProlog
/gnudict 256 dict def
gnudict begin
%
% The following true/false flags may be edited by hand if desired.
% The unit line width and grayscale image gamma correction may also be changed.
%
/Color true def
/Blacktext false def
/Solid false def
/Dashlength 1 def
/Landscape false def
/Level1 false def
/Level3 false def
/Rounded false def
/ClipToBoundingBox false def
/SuppressPDFMark false def
/TransparentPatterns false def
/gnulinewidth 5.000 def
/userlinewidth gnulinewidth def
/Gamma 1.0 def
/BackgroundColor {-1.000 -1.000 -1.000} def
%
/vshift -33 def
/dl1 {
  10.0 Dashlength userlinewidth gnulinewidth div mul mul mul
  Rounded { currentlinewidth 0.75 mul sub dup 0 le { pop 0.01 } if } if
} def
/dl2 {
  10.0 Dashlength userlinewidth gnulinewidth div mul mul mul
  Rounded { currentlinewidth 0.75 mul add } if
} def
/hpt_ 31.5 def
/vpt_ 31.5 def
/hpt hpt_ def
/vpt vpt_ def
/doclip {
  ClipToBoundingBox {
    newpath 50 50 moveto 410 50 lineto 410 302 lineto 50 302 lineto closepath
    clip
  } if
} def
%
% Gnuplot Prolog Version 5.0 (Dec 2014)
%
%/SuppressPDFMark true def
%
/M {moveto} bind def
/L {lineto} bind def
/R {rmoveto} bind def
/V {rlineto} bind def
/N {newpath moveto} bind def
/Z {closepath} bind def
/C {setrgbcolor} bind def
/f {rlineto fill} bind def
/g {setgray} bind def
/Gshow {show} def   % May be redefined later in the file to support UTF-8
/vpt2 vpt 2 mul def
/hpt2 hpt 2 mul def
/Lshow {currentpoint stroke M 0 vshift R 
	Blacktext {gsave 0 setgray textshow grestore} {textshow} ifelse} def
/Rshow {currentpoint stroke M dup stringwidth pop neg vshift R
	Blacktext {gsave 0 setgray textshow grestore} {textshow} ifelse} def
/Cshow {currentpoint stroke M dup stringwidth pop -2 div vshift R 
	Blacktext {gsave 0 setgray textshow grestore} {textshow} ifelse} def
/UP {dup vpt_ mul /vpt exch def hpt_ mul /hpt exch def
  /hpt2 hpt 2 mul def /vpt2 vpt 2 mul def} def
/DL {Color {setrgbcolor Solid {pop []} if 0 setdash}
 {pop pop pop 0 setgray Solid {pop []} if 0 setdash} ifelse} def
/BL {stroke userlinewidth 2 mul setlinewidth
	Rounded {1 setlinejoin 1 setlinecap} if} def
/AL {stroke userlinewidth 2 div setlinewidth
	Rounded {1 setlinejoin 1 setlinecap} if} def
/UL {dup gnulinewidth mul /userlinewidth exch def
	dup 1 lt {pop 1} if 10 mul /udl exch def} def
/PL {stroke userlinewidth setlinewidth
	Rounded {1 setlinejoin 1 setlinecap} if} def
3.8 setmiterlimit
% Classic Line colors (version 5.0)
/LCw {1 1 1} def
/LCb {0 0 0} def
/LCa {0 0 0} def
/LC0 {1 0 0} def
/LC1 {0 1 0} def
/LC2 {0 0 1} def
/LC3 {1 0 1} def
/LC4 {0 1 1} def
/LC5 {1 1 0} def
/LC6 {0 0 0} def
/LC7 {1 0.3 0} def
/LC8 {0.5 0.5 0.5} def
% Default dash patterns (version 5.0)
/LTw {PL [] 1 setgray} def
/LTb {BL [] LCb DL} def
/LTa {AL [1 udl mul 2 udl mul] 0 setdash LCa setrgbcolor} def
/LT0 {PL [] LC0 DL} def
/LT1 {PL [2 dl1 3 dl2] LC1 DL} def
/LT2 {PL [1 dl1 1.5 dl2] LC2 DL} def
/LT3 {PL [6 dl1 2 dl2 1 dl1 2 dl2] LC3 DL} def
/LT4 {PL [1 dl1 2 dl2 6 dl1 2 dl2 1 dl1 2 dl2] LC4 DL} def
/LT5 {PL [4 dl1 2 dl2] LC5 DL} def
/LT6 {PL [1.5 dl1 1.5 dl2 1.5 dl1 1.5 dl2 1.5 dl1 6 dl2] LC6 DL} def
/LT7 {PL [3 dl1 3 dl2 1 dl1 3 dl2] LC7 DL} def
/LT8 {PL [2 dl1 2 dl2 2 dl1 6 dl2] LC8 DL} def
/SL {[] 0 setdash} def
/Pnt {stroke [] 0 setdash gsave 1 setlinecap M 0 0 V stroke grestore} def
/Dia {stroke [] 0 setdash 2 copy vpt add M
  hpt neg vpt neg V hpt vpt neg V
  hpt vpt V hpt neg vpt V closepath stroke
  Pnt} def
/Pls {stroke [] 0 setdash vpt sub M 0 vpt2 V
  currentpoint stroke M
  hpt neg vpt neg R hpt2 0 V stroke
 } def
/Box {stroke [] 0 setdash 2 copy exch hpt sub exch vpt add M
  0 vpt2 neg V hpt2 0 V 0 vpt2 V
  hpt2 neg 0 V closepath stroke
  Pnt} def
/Crs {stroke [] 0 setdash exch hpt sub exch vpt add M
  hpt2 vpt2 neg V currentpoint stroke M
  hpt2 neg 0 R hpt2 vpt2 V stroke} def
/TriU {stroke [] 0 setdash 2 copy vpt 1.12 mul add M
  hpt neg vpt -1.62 mul V
  hpt 2 mul 0 V
  hpt neg vpt 1.62 mul V closepath stroke
  Pnt} def
/Star {2 copy Pls Crs} def
/BoxF {stroke [] 0 setdash exch hpt sub exch vpt add M
  0 vpt2 neg V hpt2 0 V 0 vpt2 V
  hpt2 neg 0 V closepath fill} def
/TriUF {stroke [] 0 setdash vpt 1.12 mul add M
  hpt neg vpt -1.62 mul V
  hpt 2 mul 0 V
  hpt neg vpt 1.62 mul V closepath fill} def
/TriD {stroke [] 0 setdash 2 copy vpt 1.12 mul sub M
  hpt neg vpt 1.62 mul V
  hpt 2 mul 0 V
  hpt neg vpt -1.62 mul V closepath stroke
  Pnt} def
/TriDF {stroke [] 0 setdash vpt 1.12 mul sub M
  hpt neg vpt 1.62 mul V
  hpt 2 mul 0 V
  hpt neg vpt -1.62 mul V closepath fill} def
/DiaF {stroke [] 0 setdash vpt add M
  hpt neg vpt neg V hpt vpt neg V
  hpt vpt V hpt neg vpt V closepath fill} def
/Pent {stroke [] 0 setdash 2 copy gsave
  translate 0 hpt M 4 {72 rotate 0 hpt L} repeat
  closepath stroke grestore Pnt} def
/PentF {stroke [] 0 setdash gsave
  translate 0 hpt M 4 {72 rotate 0 hpt L} repeat
  closepath fill grestore} def
/Circle {stroke [] 0 setdash 2 copy
  hpt 0 360 arc stroke Pnt} def
/CircleF {stroke [] 0 setdash hpt 0 360 arc fill} def
/C0 {BL [] 0 setdash 2 copy moveto vpt 90 450 arc} bind def
/C1 {BL [] 0 setdash 2 copy moveto
	2 copy vpt 0 90 arc closepath fill
	vpt 0 360 arc closepath} bind def
/C2 {BL [] 0 setdash 2 copy moveto
	2 copy vpt 90 180 arc closepath fill
	vpt 0 360 arc closepath} bind def
/C3 {BL [] 0 setdash 2 copy moveto
	2 copy vpt 0 180 arc closepath fill
	vpt 0 360 arc closepath} bind def
/C4 {BL [] 0 setdash 2 copy moveto
	2 copy vpt 180 270 arc closepath fill
	vpt 0 360 arc closepath} bind def
/C5 {BL [] 0 setdash 2 copy moveto
	2 copy vpt 0 90 arc
	2 copy moveto
	2 copy vpt 180 270 arc closepath fill
	vpt 0 360 arc} bind def
/C6 {BL [] 0 setdash 2 copy moveto
	2 copy vpt 90 270 arc closepath fill
	vpt 0 360 arc closepath} bind def
/C7 {BL [] 0 setdash 2 copy moveto
	2 copy vpt 0 270 arc closepath fill
	vpt 0 360 arc closepath} bind def
/C8 {BL [] 0 setdash 2 copy moveto
	2 copy vpt 270 360 arc closepath fill
	vpt 0 360 arc closepath} bind def
/C9 {BL [] 0 setdash 2 copy moveto
	2 copy vpt 270 450 arc closepath fill
	vpt 0 360 arc closepath} bind def
/C10 {BL [] 0 setdash 2 copy 2 copy moveto vpt 270 360 arc closepath fill
	2 copy moveto
	2 copy vpt 90 180 arc closepath fill
	vpt 0 360 arc closepath} bind def
/C11 {BL [] 0 setdash 2 copy moveto
	2 copy vpt 0 180 arc closepath fill
	2 copy moveto
	2 copy vpt 270 360 arc closepath fill
	vpt 0 360 arc closepath} bind def
/C12 {BL [] 0 setdash 2 copy moveto
	2 copy vpt 180 360 arc closepath fill
	vpt 0 360 arc closepath} bind def
/C13 {BL [] 0 setdash 2 copy moveto
	2 copy vpt 0 90 arc closepath fill
	2 copy moveto
	2 copy vpt 180 360 arc closepath fill
	vpt 0 360 arc closepath} bind def
/C14 {BL [] 0 setdash 2 copy moveto
	2 copy vpt 90 360 arc closepath fill
	vpt 0 360 arc} bind def
/C15 {BL [] 0 setdash 2 copy vpt 0 360 arc closepath fill
	vpt 0 360 arc closepath} bind def
/Rec {newpath 4 2 roll moveto 1 index 0 rlineto 0 exch rlineto
	neg 0 rlineto closepath} bind def
/Square {dup Rec} bind def
/Bsquare {vpt sub exch vpt sub exch vpt2 Square} bind def
/S0 {BL [] 0 setdash 2 copy moveto 0 vpt rlineto BL Bsquare} bind def
/S1 {BL [] 0 setdash 2 copy vpt Square fill Bsquare} bind def
/S2 {BL [] 0 setdash 2 copy exch vpt sub exch vpt Square fill Bsquare} bind def
/S3 {BL [] 0 setdash 2 copy exch vpt sub exch vpt2 vpt Rec fill Bsquare} bind def
/S4 {BL [] 0 setdash 2 copy exch vpt sub exch vpt sub vpt Square fill Bsquare} bind def
/S5 {BL [] 0 setdash 2 copy 2 copy vpt Square fill
	exch vpt sub exch vpt sub vpt Square fill Bsquare} bind def
/S6 {BL [] 0 setdash 2 copy exch vpt sub exch vpt sub vpt vpt2 Rec fill Bsquare} bind def
/S7 {BL [] 0 setdash 2 copy exch vpt sub exch vpt sub vpt vpt2 Rec fill
	2 copy vpt Square fill Bsquare} bind def
/S8 {BL [] 0 setdash 2 copy vpt sub vpt Square fill Bsquare} bind def
/S9 {BL [] 0 setdash 2 copy vpt sub vpt vpt2 Rec fill Bsquare} bind def
/S10 {BL [] 0 setdash 2 copy vpt sub vpt Square fill 2 copy exch vpt sub exch vpt Square fill
	Bsquare} bind def
/S11 {BL [] 0 setdash 2 copy vpt sub vpt Square fill 2 copy exch vpt sub exch vpt2 vpt Rec fill
	Bsquare} bind def
/S12 {BL [] 0 setdash 2 copy exch vpt sub exch vpt sub vpt2 vpt Rec fill Bsquare} bind def
/S13 {BL [] 0 setdash 2 copy exch vpt sub exch vpt sub vpt2 vpt Rec fill
	2 copy vpt Square fill Bsquare} bind def
/S14 {BL [] 0 setdash 2 copy exch vpt sub exch vpt sub vpt2 vpt Rec fill
	2 copy exch vpt sub exch vpt Square fill Bsquare} bind def
/S15 {BL [] 0 setdash 2 copy Bsquare fill Bsquare} bind def
/D0 {gsave translate 45 rotate 0 0 S0 stroke grestore} bind def
/D1 {gsave translate 45 rotate 0 0 S1 stroke grestore} bind def
/D2 {gsave translate 45 rotate 0 0 S2 stroke grestore} bind def
/D3 {gsave translate 45 rotate 0 0 S3 stroke grestore} bind def
/D4 {gsave translate 45 rotate 0 0 S4 stroke grestore} bind def
/D5 {gsave translate 45 rotate 0 0 S5 stroke grestore} bind def
/D6 {gsave translate 45 rotate 0 0 S6 stroke grestore} bind def
/D7 {gsave translate 45 rotate 0 0 S7 stroke grestore} bind def
/D8 {gsave translate 45 rotate 0 0 S8 stroke grestore} bind def
/D9 {gsave translate 45 rotate 0 0 S9 stroke grestore} bind def
/D10 {gsave translate 45 rotate 0 0 S10 stroke grestore} bind def
/D11 {gsave translate 45 rotate 0 0 S11 stroke grestore} bind def
/D12 {gsave translate 45 rotate 0 0 S12 stroke grestore} bind def
/D13 {gsave translate 45 rotate 0 0 S13 stroke grestore} bind def
/D14 {gsave translate 45 rotate 0 0 S14 stroke grestore} bind def
/D15 {gsave translate 45 rotate 0 0 S15 stroke grestore} bind def
/DiaE {stroke [] 0 setdash vpt add M
  hpt neg vpt neg V hpt vpt neg V
  hpt vpt V hpt neg vpt V closepath stroke} def
/BoxE {stroke [] 0 setdash exch hpt sub exch vpt add M
  0 vpt2 neg V hpt2 0 V 0 vpt2 V
  hpt2 neg 0 V closepath stroke} def
/TriUE {stroke [] 0 setdash vpt 1.12 mul add M
  hpt neg vpt -1.62 mul V
  hpt 2 mul 0 V
  hpt neg vpt 1.62 mul V closepath stroke} def
/TriDE {stroke [] 0 setdash vpt 1.12 mul sub M
  hpt neg vpt 1.62 mul V
  hpt 2 mul 0 V
  hpt neg vpt -1.62 mul V closepath stroke} def
/PentE {stroke [] 0 setdash gsave
  translate 0 hpt M 4 {72 rotate 0 hpt L} repeat
  closepath stroke grestore} def
/CircE {stroke [] 0 setdash 
  hpt 0 360 arc stroke} def
/Opaque {gsave closepath 1 setgray fill grestore 0 setgray closepath} def
/DiaW {stroke [] 0 setdash vpt add M
  hpt neg vpt neg V hpt vpt neg V
  hpt vpt V hpt neg vpt V Opaque stroke} def
/BoxW {stroke [] 0 setdash exch hpt sub exch vpt add M
  0 vpt2 neg V hpt2 0 V 0 vpt2 V
  hpt2 neg 0 V Opaque stroke} def
/TriUW {stroke [] 0 setdash vpt 1.12 mul add M
  hpt neg vpt -1.62 mul V
  hpt 2 mul 0 V
  hpt neg vpt 1.62 mul V Opaque stroke} def
/TriDW {stroke [] 0 setdash vpt 1.12 mul sub M
  hpt neg vpt 1.62 mul V
  hpt 2 mul 0 V
  hpt neg vpt -1.62 mul V Opaque stroke} def
/PentW {stroke [] 0 setdash gsave
  translate 0 hpt M 4 {72 rotate 0 hpt L} repeat
  Opaque stroke grestore} def
/CircW {stroke [] 0 setdash 
  hpt 0 360 arc Opaque stroke} def
/BoxFill {gsave Rec 1 setgray fill grestore} def
/Density {
  /Fillden exch def
  currentrgbcolor
  /ColB exch def /ColG exch def /ColR exch def
  /ColR ColR Fillden mul Fillden sub 1 add def
  /ColG ColG Fillden mul Fillden sub 1 add def
  /ColB ColB Fillden mul Fillden sub 1 add def
  ColR ColG ColB setrgbcolor} def
/BoxColFill {gsave Rec PolyFill} def
/PolyFill {gsave Density fill grestore grestore} def
/h {rlineto rlineto rlineto gsave closepath fill grestore} bind def
%
% PostScript Level 1 Pattern Fill routine for rectangles
% Usage: x y w h s a XX PatternFill
%	x,y = lower left corner of box to be filled
%	w,h = width and height of box
%	  a = angle in degrees between lines and x-axis
%	 XX = 0/1 for no/yes cross-hatch
%
/PatternFill {gsave /PFa [ 9 2 roll ] def
  PFa 0 get PFa 2 get 2 div add PFa 1 get PFa 3 get 2 div add translate
  PFa 2 get -2 div PFa 3 get -2 div PFa 2 get PFa 3 get Rec
  TransparentPatterns {} {gsave 1 setgray fill grestore} ifelse
  clip
  currentlinewidth 0.5 mul setlinewidth
  /PFs PFa 2 get dup mul PFa 3 get dup mul add sqrt def
  0 0 M PFa 5 get rotate PFs -2 div dup translate
  0 1 PFs PFa 4 get div 1 add floor cvi
	{PFa 4 get mul 0 M 0 PFs V} for
  0 PFa 6 get ne {
	0 1 PFs PFa 4 get div 1 add floor cvi
	{PFa 4 get mul 0 2 1 roll M PFs 0 V} for
 } if
  stroke grestore} def
%
/languagelevel where
 {pop languagelevel} {1} ifelse
dup 2 lt
	{/InterpretLevel1 true def
	 /InterpretLevel3 false def}
	{/InterpretLevel1 Level1 def
	 2 gt
	    {/InterpretLevel3 Level3 def}
	    {/InterpretLevel3 false def}
	 ifelse }
 ifelse
%
% PostScript level 2 pattern fill definitions
%
/Level2PatternFill {
/Tile8x8 {/PaintType 2 /PatternType 1 /TilingType 1 /BBox [0 0 8 8] /XStep 8 /YStep 8}
	bind def
/KeepColor {currentrgbcolor [/Pattern /DeviceRGB] setcolorspace} bind def
<< Tile8x8
 /PaintProc {0.5 setlinewidth pop 0 0 M 8 8 L 0 8 M 8 0 L stroke} 
>> matrix makepattern
/Pat1 exch def
<< Tile8x8
 /PaintProc {0.5 setlinewidth pop 0 0 M 8 8 L 0 8 M 8 0 L stroke
	0 4 M 4 8 L 8 4 L 4 0 L 0 4 L stroke}
>> matrix makepattern
/Pat2 exch def
<< Tile8x8
 /PaintProc {0.5 setlinewidth pop 0 0 M 0 8 L
	8 8 L 8 0 L 0 0 L fill}
>> matrix makepattern
/Pat3 exch def
<< Tile8x8
 /PaintProc {0.5 setlinewidth pop -4 8 M 8 -4 L
	0 12 M 12 0 L stroke}
>> matrix makepattern
/Pat4 exch def
<< Tile8x8
 /PaintProc {0.5 setlinewidth pop -4 0 M 8 12 L
	0 -4 M 12 8 L stroke}
>> matrix makepattern
/Pat5 exch def
<< Tile8x8
 /PaintProc {0.5 setlinewidth pop -2 8 M 4 -4 L
	0 12 M 8 -4 L 4 12 M 10 0 L stroke}
>> matrix makepattern
/Pat6 exch def
<< Tile8x8
 /PaintProc {0.5 setlinewidth pop -2 0 M 4 12 L
	0 -4 M 8 12 L 4 -4 M 10 8 L stroke}
>> matrix makepattern
/Pat7 exch def
<< Tile8x8
 /PaintProc {0.5 setlinewidth pop 8 -2 M -4 4 L
	12 0 M -4 8 L 12 4 M 0 10 L stroke}
>> matrix makepattern
/Pat8 exch def
<< Tile8x8
 /PaintProc {0.5 setlinewidth pop 0 -2 M 12 4 L
	-4 0 M 12 8 L -4 4 M 8 10 L stroke}
>> matrix makepattern
/Pat9 exch def
/Pattern1 {PatternBgnd KeepColor Pat1 setpattern} bind def
/Pattern2 {PatternBgnd KeepColor Pat2 setpattern} bind def
/Pattern3 {PatternBgnd KeepColor Pat3 setpattern} bind def
/Pattern4 {PatternBgnd KeepColor Landscape {Pat5} {Pat4} ifelse setpattern} bind def
/Pattern5 {PatternBgnd KeepColor Landscape {Pat4} {Pat5} ifelse setpattern} bind def
/Pattern6 {PatternBgnd KeepColor Landscape {Pat9} {Pat6} ifelse setpattern} bind def
/Pattern7 {PatternBgnd KeepColor Landscape {Pat8} {Pat7} ifelse setpattern} bind def
} def
%
%
%End of PostScript Level 2 code
%
/PatternBgnd {
  TransparentPatterns {} {gsave 1 setgray fill grestore} ifelse
} def
%
% Substitute for Level 2 pattern fill codes with
% grayscale if Level 2 support is not selected.
%
/Level1PatternFill {
/Pattern1 {0.250 Density} bind def
/Pattern2 {0.500 Density} bind def
/Pattern3 {0.750 Density} bind def
/Pattern4 {0.125 Density} bind def
/Pattern5 {0.375 Density} bind def
/Pattern6 {0.625 Density} bind def
/Pattern7 {0.875 Density} bind def
} def
%
% Now test for support of Level 2 code
%
Level1 {Level1PatternFill} {Level2PatternFill} ifelse
%
/Symbol-Oblique /Symbol findfont [1 0 .167 1 0 0] makefont
dup length dict begin {1 index /FID eq {pop pop} {def} ifelse} forall
currentdict end definefont pop
%
/MFshow {
   { dup 5 get 3 ge
     { 5 get 3 eq {gsave} {grestore} ifelse }
     {dup dup 0 get findfont exch 1 get scalefont setfont
     [ currentpoint ] exch dup 2 get 0 exch R dup 5 get 2 ne {dup dup 6
     get exch 4 get {textshow} {stringwidth pop 0 R} ifelse }if dup 5 get 0 eq
     {dup 3 get {2 get neg 0 exch R pop} {pop aload pop M} ifelse} {dup 5
     get 1 eq {dup 2 get exch dup 3 get exch 6 get stringwidth pop -2 div
     dup 0 R} {dup 6 get stringwidth pop -2 div 0 R 6 get
     textshow 2 index {aload pop M neg 3 -1 roll neg R pop pop} {pop pop pop
     pop aload pop M} ifelse }ifelse }ifelse }
     ifelse }
   forall} def
/Gswidth {dup type /stringtype eq {stringwidth} {pop (n) stringwidth} ifelse} def
/MFwidth {0 exch { dup 5 get 3 ge { 5 get 3 eq { 0 } { pop } ifelse }
 {dup 3 get{dup dup 0 get findfont exch 1 get scalefont setfont
     6 get Gswidth pop add} {pop} ifelse} ifelse} forall} def
/MLshow { currentpoint stroke M
  0 exch R
  Blacktext {gsave 0 setgray MFshow grestore} {MFshow} ifelse } bind def
/MRshow { currentpoint stroke M
  exch dup MFwidth neg 3 -1 roll R
  Blacktext {gsave 0 setgray MFshow grestore} {MFshow} ifelse } bind def
/MCshow { currentpoint stroke M
  exch dup MFwidth -2 div 3 -1 roll R
  Blacktext {gsave 0 setgray MFshow grestore} {MFshow} ifelse } bind def
/XYsave    { [( ) 1 2 true false 3 ()] } bind def
/XYrestore { [( ) 1 2 true false 4 ()] } bind def
Level1 SuppressPDFMark or 
{} {
/SDict 10 dict def
systemdict /pdfmark known not {
  userdict /pdfmark systemdict /cleartomark get put
} if
SDict begin [
  /Title (Sigma_L_Variation.eps)
  /Subject (gnuplot plot)
  /Creator (gnuplot 5.0 patchlevel 1)
  /Author (u8998)
%  /Producer (gnuplot)
%  /Keywords ()
  /CreationDate (Fri Dec 11 12:58:31 2015)
  /DOCINFO pdfmark
end
} ifelse
end
%
% Support for boxed text - Ethan A Merritt May 2005
%
/InitTextBox { userdict /TBy2 3 -1 roll put userdict /TBx2 3 -1 roll put
           userdict /TBy1 3 -1 roll put userdict /TBx1 3 -1 roll put
	   /Boxing true def } def
/ExtendTextBox { Boxing
    { gsave dup false charpath pathbbox
      dup TBy2 gt {userdict /TBy2 3 -1 roll put} {pop} ifelse
      dup TBx2 gt {userdict /TBx2 3 -1 roll put} {pop} ifelse
      dup TBy1 lt {userdict /TBy1 3 -1 roll put} {pop} ifelse
      dup TBx1 lt {userdict /TBx1 3 -1 roll put} {pop} ifelse
      grestore } if } def
/PopTextBox { newpath TBx1 TBxmargin sub TBy1 TBymargin sub M
               TBx1 TBxmargin sub TBy2 TBymargin add L
	       TBx2 TBxmargin add TBy2 TBymargin add L
	       TBx2 TBxmargin add TBy1 TBymargin sub L closepath } def
/DrawTextBox { PopTextBox stroke /Boxing false def} def
/FillTextBox { gsave PopTextBox 1 1 1 setrgbcolor fill grestore /Boxing false def} def
0 0 0 0 InitTextBox
/TBxmargin 20 def
/TBymargin 20 def
/Boxing false def
/textshow { ExtendTextBox Gshow } def
%
%%EndProlog
%%Page: 1 1
gnudict begin
gsave
doclip
50 50 translate
0.050 0.050 scale
0 setgray
newpath
(Verdana) findfont 100 scalefont setfont
BackgroundColor 0 lt 3 1 roll 0 lt exch 0 lt or or not {BackgroundColor C 1.000 0 0 7200.00 5040.00 BoxColFill} if
1.000 UL
LTb
LCb setrgbcolor
2190 3680 M
63 0 V
2183 0 R
-63 0 V
stroke
2130 3680 M
[ [(Verdana) 100.0 0.0 true true 0 ( 1)]
] -33.3 MRshow
1.000 UL
LTb
LCb setrgbcolor
2190 3851 M
63 0 V
2183 0 R
-63 0 V
stroke
2130 3851 M
[ [(Verdana) 100.0 0.0 true true 0 ( 1.5)]
] -33.3 MRshow
1.000 UL
LTb
LCb setrgbcolor
2190 4022 M
63 0 V
2183 0 R
-63 0 V
stroke
2130 4022 M
[ [(Verdana) 100.0 0.0 true true 0 ( 2)]
] -33.3 MRshow
1.000 UL
LTb
LCb setrgbcolor
2190 4193 M
63 0 V
2183 0 R
-63 0 V
stroke
2130 4193 M
[ [(Verdana) 100.0 0.0 true true 0 ( 2.5)]
] -33.3 MRshow
1.000 UL
LTb
LCb setrgbcolor
2190 4363 M
63 0 V
2183 0 R
-63 0 V
stroke
2130 4363 M
[ [(Verdana) 100.0 0.0 true true 0 ( 3)]
] -33.3 MRshow
1.000 UL
LTb
LCb setrgbcolor
2190 4534 M
63 0 V
2183 0 R
-63 0 V
stroke
2130 4534 M
[ [(Verdana) 100.0 0.0 true true 0 ( 3.5)]
] -33.3 MRshow
1.000 UL
LTb
LCb setrgbcolor
2190 4705 M
63 0 V
2183 0 R
-63 0 V
stroke
2130 4705 M
[ [(Verdana) 100.0 0.0 true true 0 ( 4)]
] -33.3 MRshow
1.000 UL
LTb
LCb setrgbcolor
2302 3680 M
0 31 V
0 994 R
0 -31 V
131 -994 R
0 63 V
0 962 R
0 -63 V
stroke
2433 3620 M
currentpoint gsave translate -45 rotate 0 0 moveto
[ [(Verdana) 100.0 0.0 true true 0 (Jan-16)]
] -33.3 MLshow
grestore
1.000 UL
LTb
LCb setrgbcolor
2564 3680 M
0 31 V
0 994 R
0 -31 V
131 -994 R
0 63 V
0 962 R
0 -63 V
stroke
2695 3620 M
currentpoint gsave translate -45 rotate 0 0 moveto
[ [(Verdana) 100.0 0.0 true true 0 (Jan-16)]
] -33.3 MLshow
grestore
1.000 UL
LTb
LCb setrgbcolor
2826 3680 M
0 31 V
0 994 R
0 -31 V
131 -994 R
0 63 V
0 962 R
0 -63 V
stroke
2957 3620 M
currentpoint gsave translate -45 rotate 0 0 moveto
[ [(Verdana) 100.0 0.0 true true 0 (Feb-16)]
] -33.3 MLshow
grestore
1.000 UL
LTb
LCb setrgbcolor
3088 3680 M
0 31 V
0 994 R
0 -31 V
131 -994 R
0 63 V
0 962 R
0 -63 V
stroke
3219 3620 M
currentpoint gsave translate -45 rotate 0 0 moveto
[ [(Verdana) 100.0 0.0 true true 0 (Feb-16)]
] -33.3 MLshow
grestore
1.000 UL
LTb
LCb setrgbcolor
3350 3680 M
0 31 V
0 994 R
0 -31 V
131 -994 R
0 63 V
0 962 R
0 -63 V
stroke
3481 3620 M
currentpoint gsave translate -45 rotate 0 0 moveto
[ [(Verdana) 100.0 0.0 true true 0 (Mar-16)]
] -33.3 MLshow
grestore
1.000 UL
LTb
LCb setrgbcolor
3612 3680 M
0 31 V
0 994 R
0 -31 V
131 -994 R
0 63 V
0 962 R
0 -63 V
stroke
3743 3620 M
currentpoint gsave translate -45 rotate 0 0 moveto
[ [(Verdana) 100.0 0.0 true true 0 (Mar-16)]
] -33.3 MLshow
grestore
1.000 UL
LTb
LCb setrgbcolor
3875 3680 M
0 31 V
0 994 R
0 -31 V
131 -994 R
0 63 V
0 962 R
0 -63 V
stroke
4006 3620 M
currentpoint gsave translate -45 rotate 0 0 moveto
[ [(Verdana) 100.0 0.0 true true 0 (Apr-16)]
] -33.3 MLshow
grestore
1.000 UL
LTb
LCb setrgbcolor
4137 3680 M
0 31 V
0 994 R
0 -31 V
131 -994 R
0 63 V
0 962 R
0 -63 V
stroke
4268 3620 M
currentpoint gsave translate -45 rotate 0 0 moveto
[ [(Verdana) 100.0 0.0 true true 0 (Apr-16)]
] -33.3 MLshow
grestore
1.000 UL
LTb
LCb setrgbcolor
4399 3680 M
0 31 V
0 994 R
0 -31 V
stroke
LTb
LCb setrgbcolor
2190 4705 N
0 -1025 V
2246 0 V
0 1025 V
-2246 0 V
Z stroke
1.000 UP
1.000 UL
LTb
LCb setrgbcolor
LCb setrgbcolor
3313 4855 M
[ [(Verdana) 100.0 0.0 true true 0 (ATM Prices)]
] -33.3 MCshow
% Begin plot #1
1.000 UP
1.000 UL
LTb
0.58 0.00 0.83 C LCb setrgbcolor
4916 4392 M
[ [(Verdana) 100.0 0.0 true true 0 (market)]
] -33.3 MRshow
1.000 UP
1.000 UL
LTb
0.58 0.00 0.83 C 4976 4392 M
303 0 V
2377 3895 M
580 280 V
543 287 V
580 175 V
2377 3895 Box
2957 4175 Box
3500 4462 Box
4080 4637 Box
5127 4392 Box
% End plot #1
% Begin plot #2
1.000 UP
1.000 UL
LTb
0.00 0.62 0.45 C LCb setrgbcolor
4916 4292 M
[ [(Verdana) 100.0 0.0 true true 0 (0.10)]
] -33.3 MRshow
1.000 UP
1.000 UL
LTb
0.00 0.62 0.45 C 4976 4292 M
303 0 V
2377 3779 M
580 178 V
543 85 V
580 58 V
2377 3779 Circle
2957 3957 Circle
3500 4042 Circle
4080 4100 Circle
5127 4292 Circle
% End plot #2
% Begin plot #3
1.000 UP
1.000 UL
LTb
0.34 0.71 0.91 C LCb setrgbcolor
4916 4192 M
[ [(Verdana) 100.0 0.0 true true 0 (0.20)]
] -33.3 MRshow
1.000 UP
1.000 UL
LTb
0.34 0.71 0.91 C 4976 4192 M
303 0 V
2377 3789 M
580 185 V
543 99 V
580 72 V
2377 3789 Circle
2957 3974 Circle
3500 4073 Circle
4080 4145 Circle
5127 4192 Circle
% End plot #3
% Begin plot #4
1.000 UP
1.000 UL
LTb
0.90 0.62 0.00 C LCb setrgbcolor
4916 4092 M
[ [(Verdana) 100.0 0.0 true true 0 (0.30)]
] -33.3 MRshow
1.000 UP
1.000 UL
LTb
0.90 0.62 0.00 C 4976 4092 M
303 0 V
2377 3800 M
580 194 V
543 110 V
580 85 V
2377 3800 Circle
2957 3994 Circle
3500 4104 Circle
4080 4189 Circle
5127 4092 Circle
% End plot #4
% Begin plot #5
1.000 UP
1.000 UL
LTb
0.94 0.89 0.26 C LCb setrgbcolor
4916 3992 M
[ [(Verdana) 100.0 0.0 true true 0 (0.40)]
] -33.3 MRshow
1.000 UP
1.000 UL
LTb
0.94 0.89 0.26 C 4976 3992 M
303 0 V
2377 3810 M
580 205 V
543 123 V
580 102 V
2377 3810 Circle
2957 4015 Circle
3500 4138 Circle
4080 4240 Circle
5127 3992 Circle
% End plot #5
2.000 UL
LTb
LCb setrgbcolor
1.000 UL
LTb
LCb setrgbcolor
2190 4705 N
0 -1025 V
2246 0 V
0 1025 V
-2246 0 V
Z stroke
1.000 UP
1.000 UL
LTb
LCb setrgbcolor
1.000 UL
LTb
LCb setrgbcolor
390 1880 M
63 0 V
2183 0 R
-63 0 V
stroke
330 1880 M
[ [(Verdana) 100.0 0.0 true true 0 ( 1)]
] -33.3 MRshow
1.000 UL
LTb
LCb setrgbcolor
390 2011 M
63 0 V
2183 0 R
-63 0 V
stroke
330 2011 M
[ [(Verdana) 100.0 0.0 true true 0 ( 1.1)]
] -33.3 MRshow
1.000 UL
LTb
LCb setrgbcolor
390 2142 M
63 0 V
2183 0 R
-63 0 V
stroke
330 2142 M
[ [(Verdana) 100.0 0.0 true true 0 ( 1.2)]
] -33.3 MRshow
1.000 UL
LTb
LCb setrgbcolor
390 2273 M
63 0 V
2183 0 R
-63 0 V
stroke
330 2273 M
[ [(Verdana) 100.0 0.0 true true 0 ( 1.3)]
] -33.3 MRshow
1.000 UL
LTb
LCb setrgbcolor
390 2404 M
63 0 V
2183 0 R
-63 0 V
stroke
330 2404 M
[ [(Verdana) 100.0 0.0 true true 0 ( 1.4)]
] -33.3 MRshow
1.000 UL
LTb
LCb setrgbcolor
390 2535 M
63 0 V
2183 0 R
-63 0 V
stroke
330 2535 M
[ [(Verdana) 100.0 0.0 true true 0 ( 1.5)]
] -33.3 MRshow
1.000 UL
LTb
LCb setrgbcolor
390 2666 M
63 0 V
2183 0 R
-63 0 V
stroke
330 2666 M
[ [(Verdana) 100.0 0.0 true true 0 ( 1.6)]
] -33.3 MRshow
1.000 UL
LTb
LCb setrgbcolor
390 2797 M
63 0 V
2183 0 R
-63 0 V
stroke
330 2797 M
[ [(Verdana) 100.0 0.0 true true 0 ( 1.7)]
] -33.3 MRshow
1.000 UL
LTb
LCb setrgbcolor
390 2928 M
63 0 V
2183 0 R
-63 0 V
stroke
330 2928 M
[ [(Verdana) 100.0 0.0 true true 0 ( 1.8)]
] -33.3 MRshow
1.000 UL
LTb
LCb setrgbcolor
390 3059 M
63 0 V
2183 0 R
-63 0 V
stroke
330 3059 M
[ [(Verdana) 100.0 0.0 true true 0 ( 1.9)]
] -33.3 MRshow
1.000 UL
LTb
LCb setrgbcolor
390 1880 M
0 63 V
0 1116 R
0 -63 V
stroke
390 1780 M
[ [(Verdana) 100.0 0.0 true true 0 ( 46.2)]
] -33.3 MCshow
1.000 UL
LTb
LCb setrgbcolor
764 1880 M
0 63 V
0 1116 R
0 -63 V
stroke
764 1780 M
[ [(Verdana) 100.0 0.0 true true 0 ( 46.4)]
] -33.3 MCshow
1.000 UL
LTb
LCb setrgbcolor
1139 1880 M
0 63 V
0 1116 R
0 -63 V
stroke
1139 1780 M
[ [(Verdana) 100.0 0.0 true true 0 ( 46.6)]
] -33.3 MCshow
1.000 UL
LTb
LCb setrgbcolor
1513 1880 M
0 63 V
0 1116 R
0 -63 V
stroke
1513 1780 M
[ [(Verdana) 100.0 0.0 true true 0 ( 46.8)]
] -33.3 MCshow
1.000 UL
LTb
LCb setrgbcolor
1887 1880 M
0 63 V
0 1116 R
0 -63 V
stroke
1887 1780 M
[ [(Verdana) 100.0 0.0 true true 0 ( 47)]
] -33.3 MCshow
1.000 UL
LTb
LCb setrgbcolor
2262 1880 M
0 63 V
0 1116 R
0 -63 V
stroke
2262 1780 M
[ [(Verdana) 100.0 0.0 true true 0 ( 47.2)]
] -33.3 MCshow
1.000 UL
LTb
LCb setrgbcolor
2636 1880 M
0 63 V
0 1116 R
0 -63 V
stroke
2636 1780 M
[ [(Verdana) 100.0 0.0 true true 0 ( 47.4)]
] -33.3 MCshow
1.000 UL
LTb
LCb setrgbcolor
1.000 UL
LTb
LCb setrgbcolor
390 3059 N
0 -1179 V
2246 0 V
0 1179 V
-2246 0 V
Z stroke
1.000 UP
1.000 UL
LTb
LCb setrgbcolor
LCb setrgbcolor
1513 3209 M
[ [(Verdana) 100.0 0.0 true true 0 (Smile 1M)]
] -33.3 MCshow
% Begin plot #1
1.000 UP
1.000 UL
LTb
0.58 0.00 0.83 C LCb setrgbcolor
3116 2669 M
[ [(Verdana) 100.0 0.0 true true 0 (market)]
] -33.3 MRshow
1.000 UP
1.000 UL
LTb
0.58 0.00 0.83 C 3176 2669 M
303 0 V
409 3033 M
936 -328 V
935 -471 V
409 3033 Box
1345 2705 Box
2280 2234 Box
3327 2669 Box
% End plot #1
% Begin plot #2
1.000 UP
1.000 UL
LTb
0.00 0.62 0.45 C LCb setrgbcolor
3116 2569 M
[ [(Verdana) 100.0 0.0 true true 0 (0.10)]
] -33.3 MRshow
1.000 UP
1.000 UL
LTb
0.00 0.62 0.45 C 3176 2569 M
303 0 V
409 2655 M
936 -397 V
935 -347 V
409 2655 Circle
1345 2258 Circle
2280 1911 Circle
3327 2569 Circle
% End plot #2
% Begin plot #3
1.000 UP
1.000 UL
LTb
0.34 0.71 0.91 C LCb setrgbcolor
3116 2469 M
[ [(Verdana) 100.0 0.0 true true 0 (0.20)]
] -33.3 MRshow
1.000 UP
1.000 UL
LTb
0.34 0.71 0.91 C 3176 2469 M
303 0 V
409 2691 M
936 -396 V
935 -345 V
409 2691 Circle
1345 2295 Circle
2280 1950 Circle
3327 2469 Circle
% End plot #3
% Begin plot #4
1.000 UP
1.000 UL
LTb
0.90 0.62 0.00 C LCb setrgbcolor
3116 2369 M
[ [(Verdana) 100.0 0.0 true true 0 (0.30)]
] -33.3 MRshow
1.000 UP
1.000 UL
LTb
0.90 0.62 0.00 C 3176 2369 M
303 0 V
409 2728 M
936 -392 V
935 -345 V
409 2728 Circle
1345 2336 Circle
2280 1991 Circle
3327 2369 Circle
% End plot #4
% Begin plot #5
1.000 UP
1.000 UL
LTb
0.94 0.89 0.26 C LCb setrgbcolor
3116 2269 M
[ [(Verdana) 100.0 0.0 true true 0 (0.40)]
] -33.3 MRshow
1.000 UP
1.000 UL
LTb
0.94 0.89 0.26 C 3176 2269 M
303 0 V
409 2769 M
936 -391 V
935 -344 V
409 2769 Circle
1345 2378 Circle
2280 2034 Circle
3327 2269 Circle
% End plot #5
2.000 UL
LTb
LCb setrgbcolor
1.000 UL
LTb
LCb setrgbcolor
390 3059 N
0 -1179 V
2246 0 V
0 1179 V
-2246 0 V
Z stroke
1.000 UP
1.000 UL
LTb
LCb setrgbcolor
1.000 UL
LTb
LCb setrgbcolor
3990 1880 M
63 0 V
2183 0 R
-63 0 V
stroke
3930 1880 M
[ [(Verdana) 100.0 0.0 true true 0 ( 1.4)]
] -33.3 MRshow
1.000 UL
LTb
LCb setrgbcolor
3990 2011 M
63 0 V
2183 0 R
-63 0 V
stroke
3930 2011 M
[ [(Verdana) 100.0 0.0 true true 0 ( 1.6)]
] -33.3 MRshow
1.000 UL
LTb
LCb setrgbcolor
3990 2142 M
63 0 V
2183 0 R
-63 0 V
stroke
3930 2142 M
[ [(Verdana) 100.0 0.0 true true 0 ( 1.8)]
] -33.3 MRshow
1.000 UL
LTb
LCb setrgbcolor
3990 2273 M
63 0 V
2183 0 R
-63 0 V
stroke
3930 2273 M
[ [(Verdana) 100.0 0.0 true true 0 ( 2)]
] -33.3 MRshow
1.000 UL
LTb
LCb setrgbcolor
3990 2404 M
63 0 V
2183 0 R
-63 0 V
stroke
3930 2404 M
[ [(Verdana) 100.0 0.0 true true 0 ( 2.2)]
] -33.3 MRshow
1.000 UL
LTb
LCb setrgbcolor
3990 2535 M
63 0 V
2183 0 R
-63 0 V
stroke
3930 2535 M
[ [(Verdana) 100.0 0.0 true true 0 ( 2.4)]
] -33.3 MRshow
1.000 UL
LTb
LCb setrgbcolor
3990 2666 M
63 0 V
2183 0 R
-63 0 V
stroke
3930 2666 M
[ [(Verdana) 100.0 0.0 true true 0 ( 2.6)]
] -33.3 MRshow
1.000 UL
LTb
LCb setrgbcolor
3990 2797 M
63 0 V
2183 0 R
-63 0 V
stroke
3930 2797 M
[ [(Verdana) 100.0 0.0 true true 0 ( 2.8)]
] -33.3 MRshow
1.000 UL
LTb
LCb setrgbcolor
3990 2928 M
63 0 V
2183 0 R
-63 0 V
stroke
3930 2928 M
[ [(Verdana) 100.0 0.0 true true 0 ( 3)]
] -33.3 MRshow
1.000 UL
LTb
LCb setrgbcolor
3990 3059 M
63 0 V
2183 0 R
-63 0 V
stroke
3930 3059 M
[ [(Verdana) 100.0 0.0 true true 0 ( 3.2)]
] -33.3 MRshow
1.000 UL
LTb
LCb setrgbcolor
3990 1880 M
0 63 V
0 1116 R
0 -63 V
stroke
3990 1780 M
[ [(Verdana) 100.0 0.0 true true 0 ( 46.6)]
] -33.3 MCshow
1.000 UL
LTb
LCb setrgbcolor
4364 1880 M
0 63 V
0 1116 R
0 -63 V
stroke
4364 1780 M
[ [(Verdana) 100.0 0.0 true true 0 ( 46.8)]
] -33.3 MCshow
1.000 UL
LTb
LCb setrgbcolor
4739 1880 M
0 63 V
0 1116 R
0 -63 V
stroke
4739 1780 M
[ [(Verdana) 100.0 0.0 true true 0 ( 47)]
] -33.3 MCshow
1.000 UL
LTb
LCb setrgbcolor
5113 1880 M
0 63 V
0 1116 R
0 -63 V
stroke
5113 1780 M
[ [(Verdana) 100.0 0.0 true true 0 ( 47.2)]
] -33.3 MCshow
1.000 UL
LTb
LCb setrgbcolor
5487 1880 M
0 63 V
0 1116 R
0 -63 V
stroke
5487 1780 M
[ [(Verdana) 100.0 0.0 true true 0 ( 47.4)]
] -33.3 MCshow
1.000 UL
LTb
LCb setrgbcolor
5862 1880 M
0 63 V
0 1116 R
0 -63 V
stroke
5862 1780 M
[ [(Verdana) 100.0 0.0 true true 0 ( 47.6)]
] -33.3 MCshow
1.000 UL
LTb
LCb setrgbcolor
6236 1880 M
0 63 V
0 1116 R
0 -63 V
stroke
6236 1780 M
[ [(Verdana) 100.0 0.0 true true 0 ( 47.8)]
] -33.3 MCshow
1.000 UL
LTb
LCb setrgbcolor
1.000 UL
LTb
LCb setrgbcolor
3990 3059 N
0 -1179 V
2246 0 V
0 1179 V
-2246 0 V
Z stroke
1.000 UP
1.000 UL
LTb
LCb setrgbcolor
LCb setrgbcolor
5113 3209 M
[ [(Verdana) 100.0 0.0 true true 0 (Smile 2M)]
] -33.3 MCshow
% Begin plot #1
1.000 UP
1.000 UL
LTb
0.58 0.00 0.83 C LCb setrgbcolor
6716 2669 M
[ [(Verdana) 100.0 0.0 true true 0 (market)]
] -33.3 MRshow
1.000 UP
1.000 UL
LTb
0.58 0.00 0.83 C 6776 2669 M
303 0 V
4215 2994 M
935 -426 V
936 -131 V
4215 2994 Box
5150 2568 Box
6086 2437 Box
6927 2669 Box
% End plot #1
% Begin plot #2
1.000 UP
1.000 UL
LTb
0.00 0.62 0.45 C LCb setrgbcolor
6716 2569 M
[ [(Verdana) 100.0 0.0 true true 0 (0.10)]
] -33.3 MRshow
1.000 UP
1.000 UL
LTb
0.00 0.62 0.45 C 6776 2569 M
303 0 V
4215 2342 M
935 -194 V
936 -175 V
4215 2342 Circle
5150 2148 Circle
6086 1973 Circle
6927 2569 Circle
% End plot #2
% Begin plot #3
1.000 UP
1.000 UL
LTb
0.34 0.71 0.91 C LCb setrgbcolor
6716 2469 M
[ [(Verdana) 100.0 0.0 true true 0 (0.20)]
] -33.3 MRshow
1.000 UP
1.000 UL
LTb
0.34 0.71 0.91 C 6776 2469 M
303 0 V
4215 2376 M
935 -192 V
936 -175 V
4215 2376 Circle
5150 2184 Circle
6086 2009 Circle
6927 2469 Circle
% End plot #3
% Begin plot #4
1.000 UP
1.000 UL
LTb
0.90 0.62 0.00 C LCb setrgbcolor
6716 2369 M
[ [(Verdana) 100.0 0.0 true true 0 (0.30)]
] -33.3 MRshow
1.000 UP
1.000 UL
LTb
0.90 0.62 0.00 C 6776 2369 M
303 0 V
-2864 44 R
935 -191 V
936 -174 V
4215 2413 Circle
5150 2222 Circle
6086 2048 Circle
6927 2369 Circle
% End plot #4
% Begin plot #5
1.000 UP
1.000 UL
LTb
0.94 0.89 0.26 C LCb setrgbcolor
6716 2269 M
[ [(Verdana) 100.0 0.0 true true 0 (0.40)]
] -33.3 MRshow
1.000 UP
1.000 UL
LTb
0.94 0.89 0.26 C 6776 2269 M
303 0 V
4215 2452 M
935 -189 V
936 -173 V
4215 2452 Circle
5150 2263 Circle
6086 2090 Circle
6927 2269 Circle
% End plot #5
2.000 UL
LTb
LCb setrgbcolor
1.000 UL
LTb
LCb setrgbcolor
3990 3059 N
0 -1179 V
2246 0 V
0 1179 V
-2246 0 V
Z stroke
1.000 UP
1.000 UL
LTb
LCb setrgbcolor
1.000 UL
LTb
LCb setrgbcolor
390 200 M
63 0 V
2183 0 R
-63 0 V
stroke
330 200 M
[ [(Verdana) 100.0 0.0 true true 0 ( 1.8)]
] -33.3 MRshow
1.000 UL
LTb
LCb setrgbcolor
390 347 M
63 0 V
2183 0 R
-63 0 V
stroke
330 347 M
[ [(Verdana) 100.0 0.0 true true 0 ( 2)]
] -33.3 MRshow
1.000 UL
LTb
LCb setrgbcolor
390 495 M
63 0 V
2183 0 R
-63 0 V
stroke
330 495 M
[ [(Verdana) 100.0 0.0 true true 0 ( 2.2)]
] -33.3 MRshow
1.000 UL
LTb
LCb setrgbcolor
390 643 M
63 0 V
2183 0 R
-63 0 V
stroke
330 643 M
[ [(Verdana) 100.0 0.0 true true 0 ( 2.4)]
] -33.3 MRshow
1.000 UL
LTb
LCb setrgbcolor
390 790 M
63 0 V
2183 0 R
-63 0 V
stroke
330 790 M
[ [(Verdana) 100.0 0.0 true true 0 ( 2.6)]
] -33.3 MRshow
1.000 UL
LTb
LCb setrgbcolor
390 938 M
63 0 V
2183 0 R
-63 0 V
stroke
330 938 M
[ [(Verdana) 100.0 0.0 true true 0 ( 2.8)]
] -33.3 MRshow
1.000 UL
LTb
LCb setrgbcolor
390 1085 M
63 0 V
2183 0 R
-63 0 V
stroke
330 1085 M
[ [(Verdana) 100.0 0.0 true true 0 ( 3)]
] -33.3 MRshow
1.000 UL
LTb
LCb setrgbcolor
390 1233 M
63 0 V
2183 0 R
-63 0 V
stroke
330 1233 M
[ [(Verdana) 100.0 0.0 true true 0 ( 3.2)]
] -33.3 MRshow
1.000 UL
LTb
LCb setrgbcolor
390 1380 M
63 0 V
2183 0 R
-63 0 V
stroke
330 1380 M
[ [(Verdana) 100.0 0.0 true true 0 ( 3.4)]
] -33.3 MRshow
1.000 UL
LTb
LCb setrgbcolor
390 200 M
0 63 V
0 1117 R
0 -63 V
stroke
390 100 M
[ [(Verdana) 100.0 0.0 true true 0 ( 47.4)]
] -33.3 MCshow
1.000 UL
LTb
LCb setrgbcolor
764 200 M
0 63 V
0 1117 R
0 -63 V
stroke
764 100 M
[ [(Verdana) 100.0 0.0 true true 0 ( 47.6)]
] -33.3 MCshow
1.000 UL
LTb
LCb setrgbcolor
1139 200 M
0 63 V
0 1117 R
0 -63 V
stroke
1139 100 M
[ [(Verdana) 100.0 0.0 true true 0 ( 47.8)]
] -33.3 MCshow
1.000 UL
LTb
LCb setrgbcolor
1513 200 M
0 63 V
0 1117 R
0 -63 V
stroke
1513 100 M
[ [(Verdana) 100.0 0.0 true true 0 ( 48)]
] -33.3 MCshow
1.000 UL
LTb
LCb setrgbcolor
1887 200 M
0 63 V
0 1117 R
0 -63 V
stroke
1887 100 M
[ [(Verdana) 100.0 0.0 true true 0 ( 48.2)]
] -33.3 MCshow
1.000 UL
LTb
LCb setrgbcolor
2262 200 M
0 63 V
0 1117 R
0 -63 V
stroke
2262 100 M
[ [(Verdana) 100.0 0.0 true true 0 ( 48.4)]
] -33.3 MCshow
1.000 UL
LTb
LCb setrgbcolor
2636 200 M
0 63 V
0 1117 R
0 -63 V
stroke
2636 100 M
[ [(Verdana) 100.0 0.0 true true 0 ( 48.6)]
] -33.3 MCshow
1.000 UL
LTb
LCb setrgbcolor
1.000 UL
LTb
LCb setrgbcolor
390 1380 N
390 200 L
2246 0 V
0 1180 V
-2246 0 V
Z stroke
1.000 UP
1.000 UL
LTb
LCb setrgbcolor
LCb setrgbcolor
1513 1530 M
[ [(Verdana) 100.0 0.0 true true 0 (Smile 3M)]
] -33.3 MCshow
% Begin plot #1
1.000 UP
1.000 UL
LTb
0.58 0.00 0.83 C LCb setrgbcolor
3116 990 M
[ [(Verdana) 100.0 0.0 true true 0 (market)]
] -33.3 MRshow
1.000 UP
1.000 UL
LTb
0.58 0.00 0.83 C 3176 990 M
303 0 V
465 1306 M
936 -7 V
936 -192 V
465 1306 Box
1401 1299 Box
2337 1107 Box
3327 990 Box
% End plot #1
% Begin plot #2
1.000 UP
1.000 UL
LTb
0.00 0.62 0.45 C LCb setrgbcolor
3116 890 M
[ [(Verdana) 100.0 0.0 true true 0 (0.10)]
] -33.3 MRshow
1.000 UP
1.000 UL
LTb
0.00 0.62 0.45 C 3176 890 M
303 0 V
465 601 M
1401 392 L
2337 200 L
465 601 Circle
1401 392 Circle
2337 200 Circle
3327 890 Circle
% End plot #2
% Begin plot #3
1.000 UP
1.000 UL
LTb
0.34 0.71 0.91 C LCb setrgbcolor
3116 790 M
[ [(Verdana) 100.0 0.0 true true 0 (0.20)]
] -33.3 MRshow
1.000 UP
1.000 UL
LTb
0.34 0.71 0.91 C 3176 790 M
303 0 V
465 663 M
1401 455 L
2337 265 L
465 663 Circle
1401 455 Circle
2337 265 Circle
3327 790 Circle
% End plot #3
% Begin plot #4
1.000 UP
1.000 UL
LTb
0.90 0.62 0.00 C LCb setrgbcolor
3116 690 M
[ [(Verdana) 100.0 0.0 true true 0 (0.30)]
] -33.3 MRshow
1.000 UP
1.000 UL
LTb
0.90 0.62 0.00 C 3176 690 M
303 0 V
465 731 M
1401 525 L
2337 336 L
465 731 Circle
1401 525 Circle
2337 336 Circle
3327 690 Circle
% End plot #4
% Begin plot #5
1.000 UP
1.000 UL
LTb
0.94 0.89 0.26 C LCb setrgbcolor
3116 590 M
[ [(Verdana) 100.0 0.0 true true 0 (0.40)]
] -33.3 MRshow
1.000 UP
1.000 UL
LTb
0.94 0.89 0.26 C 3176 590 M
303 0 V
465 804 M
1401 601 L
2337 412 L
465 804 Circle
1401 601 Circle
2337 412 Circle
3327 590 Circle
% End plot #5
2.000 UL
LTb
LCb setrgbcolor
1.000 UL
LTb
LCb setrgbcolor
390 1380 N
390 200 L
2246 0 V
0 1180 V
-2246 0 V
Z stroke
1.000 UP
1.000 UL
LTb
LCb setrgbcolor
1.000 UL
LTb
LCb setrgbcolor
3990 200 M
63 0 V
2183 0 R
-63 0 V
stroke
3930 200 M
[ [(Verdana) 100.0 0.0 true true 0 ( 1.5)]
] -33.3 MRshow
1.000 UL
LTb
LCb setrgbcolor
3990 397 M
63 0 V
2183 0 R
-63 0 V
stroke
3930 397 M
[ [(Verdana) 100.0 0.0 true true 0 ( 2)]
] -33.3 MRshow
1.000 UL
LTb
LCb setrgbcolor
3990 593 M
63 0 V
2183 0 R
-63 0 V
stroke
3930 593 M
[ [(Verdana) 100.0 0.0 true true 0 ( 2.5)]
] -33.3 MRshow
1.000 UL
LTb
LCb setrgbcolor
3990 790 M
63 0 V
2183 0 R
-63 0 V
stroke
3930 790 M
[ [(Verdana) 100.0 0.0 true true 0 ( 3)]
] -33.3 MRshow
1.000 UL
LTb
LCb setrgbcolor
3990 987 M
63 0 V
2183 0 R
-63 0 V
stroke
3930 987 M
[ [(Verdana) 100.0 0.0 true true 0 ( 3.5)]
] -33.3 MRshow
1.000 UL
LTb
LCb setrgbcolor
3990 1183 M
63 0 V
2183 0 R
-63 0 V
stroke
3930 1183 M
[ [(Verdana) 100.0 0.0 true true 0 ( 4)]
] -33.3 MRshow
1.000 UL
LTb
LCb setrgbcolor
3990 1380 M
63 0 V
2183 0 R
-63 0 V
stroke
3930 1380 M
[ [(Verdana) 100.0 0.0 true true 0 ( 4.5)]
] -33.3 MRshow
1.000 UL
LTb
LCb setrgbcolor
3990 200 M
0 63 V
0 1117 R
0 -63 V
stroke
3990 100 M
[ [(Verdana) 100.0 0.0 true true 0 ( 48)]
] -33.3 MCshow
1.000 UL
LTb
LCb setrgbcolor
4364 200 M
0 63 V
0 1117 R
0 -63 V
stroke
4364 100 M
[ [(Verdana) 100.0 0.0 true true 0 ( 48.2)]
] -33.3 MCshow
1.000 UL
LTb
LCb setrgbcolor
4739 200 M
0 63 V
0 1117 R
0 -63 V
stroke
4739 100 M
[ [(Verdana) 100.0 0.0 true true 0 ( 48.4)]
] -33.3 MCshow
1.000 UL
LTb
LCb setrgbcolor
5113 200 M
0 63 V
0 1117 R
0 -63 V
stroke
5113 100 M
[ [(Verdana) 100.0 0.0 true true 0 ( 48.6)]
] -33.3 MCshow
1.000 UL
LTb
LCb setrgbcolor
5487 200 M
0 63 V
0 1117 R
0 -63 V
stroke
5487 100 M
[ [(Verdana) 100.0 0.0 true true 0 ( 48.8)]
] -33.3 MCshow
1.000 UL
LTb
LCb setrgbcolor
5862 200 M
0 63 V
0 1117 R
0 -63 V
stroke
5862 100 M
[ [(Verdana) 100.0 0.0 true true 0 ( 49)]
] -33.3 MCshow
1.000 UL
LTb
LCb setrgbcolor
6236 200 M
0 63 V
0 1117 R
0 -63 V
stroke
6236 100 M
[ [(Verdana) 100.0 0.0 true true 0 ( 49.2)]
] -33.3 MCshow
1.000 UL
LTb
LCb setrgbcolor
1.000 UL
LTb
LCb setrgbcolor
3990 1380 N
0 -1180 V
2246 0 V
0 1180 V
-2246 0 V
Z stroke
1.000 UP
1.000 UL
LTb
LCb setrgbcolor
LCb setrgbcolor
5113 1530 M
[ [(Verdana) 100.0 0.0 true true 0 (Smile 4M)]
] -33.3 MCshow
% Begin plot #1
1.000 UP
1.000 UL
LTb
0.58 0.00 0.83 C LCb setrgbcolor
6716 990 M
[ [(Verdana) 100.0 0.0 true true 0 (market)]
] -33.3 MRshow
1.000 UP
1.000 UL
LTb
0.58 0.00 0.83 C 6776 990 M
303 0 V
4196 1203 M
936 -98 V
936 -95 V
4196 1203 Box
5132 1105 Box
6068 1010 Box
6927 990 Box
% End plot #1
% Begin plot #2
1.000 UP
1.000 UL
LTb
0.00 0.62 0.45 C LCb setrgbcolor
6716 890 M
[ [(Verdana) 100.0 0.0 true true 0 (0.10)]
] -33.3 MRshow
1.000 UP
1.000 UL
LTb
0.00 0.62 0.45 C 6776 890 M
303 0 V
4196 595 M
5132 489 L
936 -99 V
4196 595 Circle
5132 489 Circle
6068 390 Circle
6927 890 Circle
% End plot #2
% Begin plot #3
1.000 UP
1.000 UL
LTb
0.34 0.71 0.91 C LCb setrgbcolor
6716 790 M
[ [(Verdana) 100.0 0.0 true true 0 (0.20)]
] -33.3 MRshow
1.000 UP
1.000 UL
LTb
0.34 0.71 0.91 C 6776 790 M
303 0 V
4196 642 M
5132 537 L
936 -99 V
4196 642 Circle
5132 537 Circle
6068 438 Circle
6927 790 Circle
% End plot #3
% Begin plot #4
1.000 UP
1.000 UL
LTb
0.90 0.62 0.00 C LCb setrgbcolor
6716 690 M
[ [(Verdana) 100.0 0.0 true true 0 (0.30)]
] -33.3 MRshow
1.000 UP
1.000 UL
LTb
0.90 0.62 0.00 C 6776 690 M
303 0 V
-2883 4 R
5132 590 L
936 -98 V
4196 694 Circle
5132 590 Circle
6068 492 Circle
6927 690 Circle
% End plot #4
% Begin plot #5
1.000 UP
1.000 UL
LTb
0.94 0.89 0.26 C LCb setrgbcolor
6716 590 M
[ [(Verdana) 100.0 0.0 true true 0 (0.40)]
] -33.3 MRshow
1.000 UP
1.000 UL
LTb
0.94 0.89 0.26 C 6776 590 M
303 0 V
4196 751 M
5132 648 L
936 -97 V
4196 751 Circle
5132 648 Circle
6068 551 Circle
6927 590 Circle
% End plot #5
2.000 UL
LTb
LCb setrgbcolor
1.000 UL
LTb
LCb setrgbcolor
3990 1380 N
0 -1180 V
2246 0 V
0 1180 V
-2246 0 V
Z stroke
1.000 UP
1.000 UL
LTb
LCb setrgbcolor
stroke
grestore
end
showpage
%%Trailer
%%DocumentFonts: Verdana
